power calculation/12kHzcounter/49.csv

#Digilent WaveForms Oscilloscope Acquisition
#Device Name: Discovery2
#Serial Number: SN:210321A7F99C
#Date Time: 2024-05-28 12:22:08.594
#Sample rate: 160000Hz
#Samples: 8192
#Trigger: Source: Channel 1 Type: Edge Condition: Rising Level: 49.42 mV Hyst.: Auto HoldOff: 0 s
#Channel 1: Range: 2 mV/div Offset: 0 V Attenuation: 1 X Sample Mode: Average

Time (s),Channel 1 (V)
-0.0256,-0.08264292119355185
-0.02559375,-0.03142410762598769
-0.0255875,-0.09010526489214124
-0.02558125,-0.1002811881174904
-0.025575,-0.09688921370904069
-0.02556875,-0.09281884441890101
-0.0255625,-0.1036731625259452
-0.02555625,-0.1148666780738242
-0.02555,-0.1077435318160798
-0.02554375,-0.09315804185974599
-0.0255375,-0.03176330506680598
-0.02553125,-0.07212780052736804
-0.025525,-0.09485402906397084
-0.02551875,-0.08705248792453649
-0.0255125,-0.09349723930059095
-0.02550625,-0.09722841114988565
-0.0255,-0.1074043343752368
-0.02549375,-0.1118139011062195
-0.0254875,-0.09824600347242057
-0.02548125,-0.04431361037806996
-0.025475,-0.0633086670653884
-0.02546875,-0.112492295987904
-0.0254625,-0.1006203855583354
-0.02545625,-0.08908767256960631
-0.02545,-0.0867132904836915
-0.02544375,-0.1023163727625602
-0.0254375,-0.1002811881174899
-0.02543125,-0.0992635957949555
-0.025425,-0.06127348242031858
-0.02541875,-0.03990404364708532
-0.0254125,-0.08399971095693173
-0.02540625,-0.07687656469919177
-0.0254,-0.0867132904836915
-0.02539375,-0.08773088280622643
-0.0253875,-0.1091003215794597
-0.02538125,-0.105369149730165
-0.025375,-0.09756760859073418
-0.02536875,-0.08773088280622643
-0.0253625,-0.03176330506680598
-0.02535625,-0.08433890839777669
-0.02535,-0.08399971095693173
-0.02534375,-0.09010526489213846
-0.0253375,-0.09010526489214124
-0.02533125,-0.08399971095693173
-0.025325,-0.1002811881174904
-0.02531875,-0.1012987804400253
-0.0253125,-0.09756760859073232
-0.02530625,-0.03176330506680598
-0.0253,-0.06568304915130321
-0.02529375,-0.08739168536538144
-0.0252875,-0.08976606745129626
-0.02528125,-0.09655001626819262
-0.025275,-0.07857255190341217
-0.02526875,-0.09315804185974599
-0.0252625,-0.1009595829991803
-0.02525625,-0.1077435318160798
-0.02525,-0.03854725388373688
-0.02524375,-0.05075836175412443
-0.0252375,-0.07925094678510211
-0.02523125,-0.08264292119355185
-0.025225,-0.0867132904836915
-0.02521875,-0.07959014422595033
-0.0252125,-0.09756760859073063
-0.02520625,-0.1067259394935449
-0.0252,-0.1033339650850952
-0.02519375,-0.05415033616257416
-0.0251875,-0.03956484620624698
-0.02518125,-0.08298211863439681
-0.025175,-0.09214044953721107
-0.02516875,-0.09349723930059095
-0.0251625,-0.07891174934425715
-0.02515625,-0.09451483162311879
-0.02515,-0.09790680603157559
-0.02514375,-0.0965500162681957
-0.0251375,-0.0670398389146831
-0.02513125,-0.031424107625961
-0.025125,-0.08196452631183893
-0.02511875,-0.09722841114988565
-0.0251125,-0.09790680603157559
-0.02510625,-0.0867132904836915
-0.0251,-0.0965500162681957
-0.02509375,-0.1043515574076265
-0.0250875,-0.1012987804400253
-0.02508125,-0.0795901442259471
-0.025075,-0.03108491018511603
-0.02506875,-0.07144940564566776
-0.0250625,-0.09722841114987392
-0.02505625,-0.09485402906397084
-0.02505,-0.08332131607524179
-0.02504375,-0.09078365977383118
-0.0250375,-0.1006203855583354
-0.02503125,-0.1074043343752348
-0.025025,-0.1091003215794597
-0.02501875,-0.03854725388370542
-0.0250125,-0.05686391568933394
-0.02500625,-0.09417563418228089
-0.025,-0.08908767256960631
-0.02499375,-0.08739168536538144
-0.0249875,-0.08705248792453649
-0.02498125,-0.1006203855583354
-0.024975,-0.1114747036653745
-0.02496875,-0.1182586524822739
-0.0249625,-0.06873582611890797
-0.02495625,-0.04702718990482974
-0.02495,-0.1043515574076301
-0.02494375,-0.09010526489214124
-0.0249375,-0.09587162138650576
-0.02493125,-0.08874847512876567
-0.024925,-0.09824600347242057
-0.02491875,-0.1165626652780491
-0.0249125,-0.1145274806329792
-0.02490625,-0.09417563418228089
-0.0249,-0.03176330506683806
-0.02489375,-0.1023163727625602
-0.0248875,-0.09349723930059095
-0.02488125,-0.09078365977383118
-0.024875,-0.0856956981611566
-0.02486875,-0.1019771753217236
-0.0248625,-0.1202938371273438
-0.02485625,-0.1284345757076231
-0.02485,-0.117241060159739
-0.02484375,-0.031424107625961
-0.0248375,-0.07992934166679884
-0.02483125,-0.09485402906397084
-0.024825,-0.09485402906397084
-0.02481875,-0.09688921370904069
-0.0248125,-0.0867132904836915
-0.02480625,-0.1196154422456551
-0.0248,-0.1223290217724136
-0.02479375,-0.1274169833850882
-0.0247875,-0.03854725388370542
-0.02478125,-0.06466545682876831
-0.024775,-0.09519322650481382
-0.02476875,-0.09078365977383118
-0.0247625,-0.1002811881174904
-0.02475625,-0.09281884441890101
-0.02475,-0.1162234678372041
-0.02474375,-0.132165747556913
-0.0247375,-0.1216506268907237
-0.02473125,-0.05211515151750432
-0.024725,-0.04533120270060487
-0.02471875,-0.09621081882735075
-0.0247125,-0.09553242394565541
-0.02470625,-0.08366051351608675
-0.0247,-0.08874847512876136
-0.02469375,-0.1097787164611496
-0.0246875,-0.1321657475569178
-0.02468125,-0.1206330345681638
-0.024675,-0.06568304915130321
-0.02466875,-0.03176330506680598
-0.0246625,-0.08603489560200156
-0.02465625,-0.0856956981611566
-0.02465,-0.07789415702172531
-0.02464375,-0.08467810583862168
-0.0246375,-0.1135098883104443
-0.02463125,-0.1365753142879025
-0.024625,-0.1118139011062195
-0.02461875,-0.07280619540902883
-0.0246125,-0.031424107625961
-0.02460625,-0.07755495958087724
-0.0246,-0.08467810583862168
-0.02459375,-0.08264292119355185
-0.0245875,-0.09010526489213785
-0.02458125,-0.09281884441890101
-0.024575,-0.1365753142879025
-0.02456875,-0.1070651369343898
-0.0245625,-0.08366051351608675
-0.02455625,-0.03515527947527776
-0.02455,-0.05822070545271383
-0.02454375,-0.08840927768791637
-0.0245375,-0.0894268700104513
-0.02453125,-0.08976606745129626
-0.024525,-0.08467810583862399
-0.02451875,-0.1331833398794527
-0.0245125,-0.09722841114988565
-0.02450625,-0.08908767256960631
-0.0245,-0.04736638734567471
-0.02449375,-0.04567040014145061
-0.0244875,-0.08840927768791637
-0.02448125,-0.08433890839777669
-0.024475,-0.08908767256960631
-0.02446875,-0.07789415702172223
-0.0244625,-0.08976606745129086
-0.02445625,-0.0894268700104513
-0.02445,-0.09146205465552112
-0.02444375,-0.07348459029073759
-0.0244375,-0.03244169994849593
-0.02443125,-0.08128613143014973
-0.024425,-0.08535650072031162
-0.02441875,-0.08739168536538144
-0.0244125,-0.08535650072031162
-0.02440625,-0.08739168536538144
-0.0244,-0.09722841114988118
-0.02439375,-0.08976606745129626
-0.0243875,-0.0758589723766524
-0.02438125,-0.03108491018511603
-0.024375,-0.06975341844144289
-0.02436875,-0.09315804185973535
-0.0243625,-0.0955324239456608
-0.02435625,-0.08366051351608675
-0.02435,-0.080607736548482
-0.02434375,-0.1043515574076301
-0.0243375,-0.09722841114988888
-0.02433125,-0.0904444623329862
-0.024325,-0.03413768715272079
-0.02431875,-0.0548287310442641
-0.0243125,-0.08705248792453649
-0.02430625,-0.09722841114988101
-0.0243,-0.08366051351608675
-0.02429375,-0.08196452631186191
-0.0242875,-0.09756760859073063
-0.02428125,-0.1019771753217153
-0.024275,-0.0951932265048189
-0.02426875,-0.04600959758229482
-0.0242625,-0.04295682061469007
-0.02425625,-0.08807008024707139
-0.02425,-0.09960279323580046
-0.02424375,-0.09078365977383118
-0.0242375,-0.0856956981611566
-0.02423125,-0.09994199067664544
-0.024225,-0.0955324239456608
-0.02421875,-0.1063867420526999
-0.0242125,-0.05923829777524874
-0.02420625,-0.03312009483018587
-0.0242,-0.08705248792453649
-0.02419375,-0.09383643674143594
-0.0241875,-0.08705248792453649
-0.02418125,-0.08298211863439681
-0.024175,-0.1012987804400283
-0.02416875,-0.1077435318160798
-0.0241625,-0.1087611241386147
-0.02415625,-0.1104571113428396
-0.02415,-0.031424107625961
-0.02414375,-0.08840927768791806
-0.0241375,-0.09214044953721107
-0.02413125,-0.07857255190341217
-0.024125,-0.1009595829991803
-0.02411875,-0.08773088280622643
-0.0241125,-0.1128314934287556
-0.02410625,-0.1155450729555142
-0.0241,-0.1328441424386078
-0.02409375,-0.03583367435694565
-0.0240875,-0.0758589723766524
-0.02408125,-0.09994199067664174
-0.024075,-0.09180125209636608
-0.02406875,-0.09892439835411052
-0.0240625,-0.08807008024707139
-0.02405625,-0.1141882831921343
-0.02405,-0.1152058755146786
-0.02404375,-0.1358969194062125
-0.0240375,-0.05923829777524874
-0.02403125,-0.05279354639919426
-0.024025,-0.09485402906397084
-0.02401875,-0.09688921370904177
-0.0240125,-0.0992635957949555
-0.02400625,-0.08603489560200156
-0.024,-0.1148666780738242
-0.02399375,-0.1287737731484681
-0.0239875,-0.1358969194061858
-0.02398125,-0.07721576214003228
-0.023975,-0.03447688459356576
-0.02396875,-0.09994199067664544
-0.0239625,-0.10502995228932
-0.02395625,-0.104351557407625
-0.02395,-0.09315804185974599
-0.02394375,-0.1077435318160798
-0.0239375,-0.1253817987400184
-0.02393125,-0.1355577219653676
-0.023925,-0.1019771753216832
-0.02391875,-0.031424107625961
-0.0239125,-0.08535650072031162
-0.02390625,-0.09824600347242057
-0.0239,-0.09824600347242057
-0.02389375,-0.09926359579495272
-0.0238875,-0.09315804185974599
-0.02388125,-0.1321657475569178
-0.023875,-0.1335225373202977
-0.02386875,-0.09146205465552112
-0.0238625,-0.0327808973893554
-0.02385625,-0.06466545682876831
-0.02385,-0.09722841114988565
-0.02384375,-0.08603489560200156
-0.0238375,-0.09214044953721107
-0.02383125,-0.0904444623330061
-0.023825,-0.1342009322019876
-0.02381875,-0.1348793270836776
-0.0238125,-0.0965500162681957
-0.02380625,-0.04600959758229482
-0.0238,-0.04838397966820854
-0.02379375,-0.1016379778808703
-0.0237875,-0.08433890839777669
-0.02378125,-0.08705248792453649
-0.023775,-0.07891174934425715
-0.02376875,-0.1355577219653418
-0.0237625,-0.1243642064174834
-0.02375625,-0.09146205465552112
-0.02375,-0.05822070545271383
-0.02374375,-0.03481608203441073
-0.0237375,-0.0975676085907021
-0.02373125,-0.08773088280622643
-0.023725,-0.08332131607524179
-0.02371875,-0.07653736725834234
-0.0237125,-0.1111355062245295
-0.02370625,-0.1219898243315637
-0.0237,-0.09010526489214124
-0.02369375,-0.06839662867806301
-0.0236875,-0.031424107625961
-0.02368125,-0.08467810583862168
-0.023675,-0.08637409304284577
-0.02366875,-0.08773088280622643
-0.0236625,-0.09485402906397084
-0.02365625,-0.07992934166679205
-0.02365,-0.1148666780738242
-0.02364375,-0.09349723930060067
-0.0236375,-0.08230372375270686
-0.02363125,-0.03244169994849593
-0.023625,-0.0609342849794736
-0.02361875,-0.08807008024707139
-0.0236125,-0.09180125209636439
-0.02360625,-0.09214044953721107
-0.0236,-0.07348459029073759
-0.02359375,-0.09485402906397084
-0.0235875,-0.08874847512876136
-0.02358125,-0.0802685391076409
-0.023575,-0.04160003085131018
-0.02356875,-0.05245434895834929
-0.0235625,-0.08739168536538144
-0.02355625,-0.09417563418228089
-0.02355,-0.08976606745129825
-0.02354375,-0.0731453928498926
-0.0235375,-0.0965500162681957
-0.02353125,-0.1023163727625602
-0.023525,-0.08705248792453649
-0.02351875,-0.05822070545272694
-0.0235125,-0.0351552794752557
-0.02350625,-0.08366051351608675
-0.0235,-0.08874847512876136
-0.02349375,-0.0856956981611566
-0.0234875,-0.07619816981750167
-0.02348125,-0.09790680603157559
-0.023475,-0.1040123599667851
-0.02346875,-0.09451483162312588
-0.0234625,-0.06737903635552808
-0.02345625,-0.03176330506680598
-0.02345,-0.07484138005411747
-0.02344375,-0.09451483162312588
-0.0234375,-0.08399971095693173
-0.02343125,-0.08230372375270686
-0.023425,-0.09112285721467614
-0.02341875,-0.1002811881174904
-0.0234125,-0.1128314934287544
-0.02340625,-0.09858520091326553
-0.0234,-0.03210250250765095
-0.02339375,-0.06364786450623339
-0.0233875,-0.09994199067663757
-0.02338125,-0.08264292119355185
-0.023375,-0.08705248792453649
-0.02336875,-0.08501730327946666
-0.0233625,-0.0965500162681957
-0.02335625,-0.1107963087836865
-0.02335,-0.1152058755146692
-0.02334375,-0.04329601805553504
-0.0233375,-0.0609342849794736
-0.02333125,-0.0955324239456608
-0.023325,-0.09078365977383226
-0.02331875,-0.09315804185974599
-0.0233125,-0.08908767256960631
-0.02330625,-0.1023163727625602
-0.0233,-0.1192762448048089
-0.02329375,-0.1294521680301346
-0.0232875,-0.07789415702172223
-0.02328125,-0.03990404364708532
-0.023275,-0.1104571113428396
-0.02326875,-0.09485402906397084
-0.0232625,-0.0968892137090359
-0.02325625,-0.08637409304284654
-0.02325,-0.1087611241386147
-0.02324375,-0.1152058755146692
-0.0232375,-0.1338617347611427
-0.02323125,-0.1033339650850625
-0.023225,-0.031424107625961
-0.02321875,-0.09146205465552112
-0.0232125,-0.09688921370904069
-0.02320625,-0.1087611241386147
-0.0232,-0.09281884441890162
-0.02319375,-0.09417563418228089
-0.0231875,-0.1135098883104443
-0.02318125,-0.1338617347611427
-0.023175,-0.1267385885033983
-0.02316875,-0.03244169994851567
-0.0231625,-0.0758589723766524
-0.02315625,-0.09519322650481582
-0.02315,-0.09960279323580046
-0.02314375,-0.1023163727625602
-0.0231375,-0.0982460034724269
-0.02313125,-0.1121530985470644
-0.023125,-0.1358969194062125
-0.02311875,-0.1243642064174834
-0.0231125,-0.04567040014144984
-0.02310625,-0.05448953360343686
-0.0231,-0.09349723930059095
-0.02309375,-0.0992635957949555
-0.0230875,-0.09146205465552112
-0.02308125,-0.08773088280622643
-0.023075,-0.1243642064174887
-0.02306875,-0.1358969194062125
-0.0230625,-0.117241060159739
-0.02305625,-0.05754231057102388
-0.02305,-0.03990404364708532
-0.02304375,-0.1006203855583078
-0.0230375,-0.0965500162681957
-0.02303125,-0.0904444623329862
-0.023025,-0.080607736548482
-0.02301875,-0.1253817987400184
-0.0230125,-0.1358969194062077
-0.02300625,-0.1226682192132586
-0.023,-0.06636144403299316
-0.02299375,-0.031424107625961
-0.0229875,-0.08603489560200156
-0.02298125,-0.08976606745129456
-0.022975,-0.09214044953721107
-0.02296875,-0.08128613143017194
-0.0229625,-0.117241060159739
-0.02295625,-0.1352185245245226
-0.02295,-0.1070651369344026
-0.02294375,-0.0856956981611566
-0.0229375,-0.031424107625961
-0.02293125,-0.06975341844144289
-0.022925,-0.09790680603157559
-0.02291875,-0.09451483162312742
-0.0229125,-0.09180125209636608
-0.02290625,-0.09858520091326553
-0.0229,-0.1345401296428326
-0.02289375,-0.1094395190203047
-0.0228875,-0.08366051351609848
-0.02288125,-0.03922564876539537
-0.022875,-0.05991669265693869
-0.02286875,-0.09824600347242057
-0.0228625,-0.08162532887101692
-0.02285625,-0.09247964697805111
-0.02285,-0.0758589723766524
-0.02284375,-0.1074043343752348
-0.0228375,-0.09587162138650576
-0.02283125,-0.09078365977383118
-0.022825,-0.05279354639921154
-0.02281875,-0.03956484620624034
-0.0228125,-0.09994199067664544
-0.02280625,-0.09146205465552112
-0.0228,-0.08739168536538144
-0.02279375,-0.07585897237665765
-0.0227875,-0.08603489560200156
-0.02278125,-0.08332131607524179
-0.022775,-0.08773088280622643
-0.02276875,-0.0670398389146831
-0.0227625,-0.03176330506682202
-0.02275625,-0.0867132904836915
-0.02275,-0.08196452631186191
-0.02274375,-0.09281884441890101
-0.0227375,-0.08535650072031162
-0.02273125,-0.08807008024707015
-0.022725,-0.09892439835411052
-0.02271875,-0.08230372375270686
-0.0227125,-0.07755495958087724
-0.02270625,-0.031424107625961
-0.0227,-0.072466997968184
-0.02269375,-0.08874847512876136
-0.0226875,-0.08840927768791637
-0.02268125,-0.08399971095693173
-0.022675,-0.07755495958087724
-0.02266875,-0.09587162138650576
-0.0226625,-0.1006203855583354
-0.02265625,-0.08298211863439681
-0.02265,-0.03786885900201548
-0.02264375,-0.0510975591949694
-0.0226375,-0.08807008024707139
-0.02263125,-0.08874847512876136
-0.022625,-0.09078365977383118
-0.02261875,-0.07518057749496246
-0.0226125,-0.1043515574076301
-0.02260625,-0.1029947676442502
-0.0226,-0.09587162138648447
-0.02259375,-0.04906237454989957
-0.0225875,-0.03990404364708532
-0.02258125,-0.09180125209636608
-0.022575,-0.08467810583862168
-0.02256875,-0.09044446233298264
-0.0225625,-0.08264292119355185
-0.02255625,-0.1060475446118549
-0.02255,-0.1094395190203047
-0.02254375,-0.1135098883104443
-0.0225375,-0.08569569816113208
-0.02253125,-0.03176330506680598
-0.022525,-0.08739168536538144
-0.02251875,-0.08976606745129626
-0.0225125,-0.09892439835411052
-0.02250625,-0.08671329048369814
-0.0225,-0.1012987804400253
-0.02249375,-0.1169018627188941
-0.0224875,-0.1158842703963591
-0.02248125,-0.1213114294498787
-0.022475,-0.03176330506682973
-0.02246875,-0.08399971095693173
-0.0224625,-0.0955324239456608
-0.02245625,-0.09722841114988565
-0.02245,-0.09892439835411052
-0.02244375,-0.09146205465552837
-0.0224375,-0.1074043343752348
-0.02243125,-0.1202938371273438
-0.022425,-0.1348793270836776
-0.02241875,-0.04329601805553504
-0.0224125,-0.05889910033442506
-0.02240625,-0.10570834717101
-0.0224,-0.09315804185974599
-0.02239375,-0.10570834717101
-0.0223875,-0.08603489560200156
-0.02238125,-0.1155450729555205
-0.022375,-0.129452168030158
-0.02236875,-0.1355577219653676
-0.0223625,-0.06568304915130321
-0.02235625,-0.04567040014144984
-0.02235,-0.0979068060315742
-0.02234375,-0.09485402906397084
-0.0223375,-0.104690754848475
-0.02233125,-0.09112285721467614
-0.022325,-0.1124922959879094
-0.02231875,-0.1304697603526903
-0.0223125,-0.1247034038583284
-0.02230625,-0.08264292119355185
-0.0223,-0.03210250250765095
-0.02229375,-0.09722841114988565
-0.0222875,-0.09587162138650761
-0.02228125,-0.09994199067664544
-0.022275,-0.09146205465552112
-0.02226875,-0.104690754848475
-0.0222625,-0.1348793270836776
-0.02225625,-0.1236858115357986
-0.02225,-0.08976606745129626
-0.02224375,-0.03176330506680598
-0.0222375,-0.07551977493580742
-0.02223125,-0.0965500162681957
-0.022225,-0.09722841114988534
-0.02221875,-0.08637409304284654
-0.0222125,-0.09790680603157559
-0.02220625,-0.1348793270836776
-0.0222,-0.1206330345681887
-0.02219375,-0.09790680603158593
-0.0221875,-0.0351552794752557
-0.02218125,-0.06127348242031858
-0.022175,-0.1006203855583354
-0.02216875,-0.09281884441890101
-0.0221625,-0.08264292119355648
-0.02215625,-0.08840927768791637
-0.02215,-0.1352185245245226
-0.02214375,-0.1182586524822739
-0.0221375,-0.0894268700104513
-0.02213125,-0.04974076943160757
-0.022125,-0.0449920052597599
-0.02211875,-0.1006203855583354
-0.0221125,-0.09722841114988565
-0.02210625,-0.08433890839777669
-0.0221,-0.08162532887101816
-0.02209375,-0.1063867420526999
-0.0220875,-0.117241060159739
-0.02208125,-0.08908767256960631
-0.022075,-0.05686391568933394
-0.02206875,-0.03210250250766222
-0.0220625,-0.1009595829991803
-0.02205625,-0.09621081882735075
-0.02205,-0.08264292119355185
-0.02204375,-0.08399971095693173
-0.0220375,-0.08128613143017317
-0.02203125,-0.1169018627188941
-0.022025,-0.080607736548482
-0.02201875,-0.07484138005411747
-0.0220125,-0.031424107625961
-0.02200625,-0.08230372375268373
-0.022,-0.0955324239456608
-0.02199375,-0.08535650072031162
-0.0219875,-0.08264292119355185
-0.02198125,-0.07246699796820266
-0.021975,-0.08874847512875395
-0.02196875,-0.080607736548482
-0.0219625,-0.0867132904836915
-0.02195625,-0.03651206923863559
-0.02195,-0.06364786450623339
-0.02194375,-0.09146205465550847
-0.0219375,-0.0856956981611566
-0.02193125,-0.09349723930059095
-0.021925,-0.07551977493580742
-0.02191875,-0.08908767256960631
-0.0219125,-0.09417563418228089
-0.02190625,-0.0904444623329862
-0.0219,-0.04702718990482974
-0.02189375,-0.04770558478651968
-0.0218875,-0.0955324239456608
-0.02188125,-0.08773088280622643
-0.021875,-0.09078365977383118
-0.02186875,-0.0768765646991873
-0.0218625,-0.09247964697805605
-0.02185625,-0.10502995228932
-0.02185,-0.09688921370904069
-0.02184375,-0.06195187730200852
-0.0218375,-0.0327808973893409
-0.02183125,-0.08908767256960631
-0.021825,-0.08705248792453649
-0.02181875,-0.09214044953721107
-0.0218125,-0.08840927768792069
-0.02180625,-0.09790680603157559
-0.0218,-0.10570834717101
-0.02179375,-0.1158842703963591
-0.0217875,-0.08535650072031162
-0.02178125,-0.03142410762597921
-0.021775,-0.07144940564566776
-0.02176875,-0.09315804185974599
-0.0217625,-0.09383643674143594
-0.02175625,-0.1009595829991803
-0.02175,-0.08739168536538962
-0.02174375,-0.105369149730165
-0.0217375,-0.1118139011062195
-0.02173125,-0.1182586524822739
