power calculation/afterdsppll/0_128_0_49.csv

#Digilent WaveForms Oscilloscope Acquisition
#Device Name: Discovery2
#Serial Number: SN:210321A7F99C
#Date Time: 2024-05-24 10:49:51.405
#Sample rate: 4.16667e+06Hz
#Samples: 8192
#Trigger: Source: Channel 1 Type: Edge Condition: Rising Level: 84.34 mV Hyst.: Auto HoldOff: 0 s
#Channel 1: Range: 50 mV/div Offset: 0 V Attenuation: 1 X Sample Mode: Average

Time (s),Channel 1 (V)
-0.00146223930772597,0.08865178643315921
-0.00146199930772597,0.08966937875569414
-0.00146175930772597,0.0896693787556946
-0.00146151930772597,0.09068697107822907
-0.00146127930772597,0.09814931477681892
-0.00146103930772597,0.09916690709935293
-0.00146079930772597,0.1008628943035782
-0.00146055930772597,0.1042548687120264
-0.00146031930772597,0.1028980789486481
-0.00146007930772597,0.09916690709935323
-0.00145983930772597,0.0988277096585084
-0.00145959930772597,0.09781011733597347
-0.00145935930772597,0.09781011733597347
-0.00145911930772597,0.09441814292752376
-0.00145887930772597,0.09306135316414449
-0.00145863930772597,0.09238295828245394
-0.00145839930772597,0.09102616851907602
-0.00145815930772597,0.09543573525005866
-0.00145791930772597,0.09611413013175002
-0.00145767930772597,0.099166907099352
-0.00145743930772597,0.09984530198104333
-0.00145719930772597,0.1032372763894915
-0.00145695930772597,0.1018804866261132
-0.00145671930772597,0.1015412891852686
-0.00145647930772597,0.1025588815078031
-0.00145623930772597,0.1008628943035782
-0.00145599930772597,0.1001844994218886
-0.00145575930772597,0.1008628943035782
-0.00145551930772597,0.09916690709935416
-0.00145527930772597,0.1008628943035782
-0.00145503930772597,0.1035764738303386
-0.00145479930772597,0.1049332635937179
-0.00145455930772597,0.1052724610345629
-0.00145431930772597,0.106290053357097
-0.00145407930772597,0.1045940661528729
-0.00145383930772597,0.1032372763894936
-0.00145359930772597,0.103915671271183
-0.00145335930772597,0.1032372763894935
-0.00145311930772597,0.104254868712028
-0.00145287930772597,0.1059508559162528
-0.00145263930772597,0.1069684482387877
-0.00145239930772597,0.1069684482387877
-0.00145215930772597,0.1090036328838566
-0.00145191930772597,0.1110388175289274
-0.00145167930772597,0.1127348047331518
-0.00145143930772597,0.1117172124106174
-0.00145119930772597,0.1123956072923073
-0.00145095930772597,0.1103604226472364
-0.00145071930772597,0.1079860405613227
-0.00145047930772597,0.1100212252063916
-0.00145023930772597,0.1086644354430126
-0.00144999930772597,0.1123956072923088
-0.00144975930772597,0.115787581700757
-0.00144951930772597,0.1188403586683618
-0.00144927930772597,0.1185011612275185
-0.00144903930772597,0.1222323330768115
-0.00144879930772597,0.1185011612275185
-0.00144855930772597,0.1181619637866718
-0.00144831930772597,0.1140915944965323
-0.00144807930772597,0.1144307919373771
-0.00144783930772597,0.1100212252063925
-0.00144759930772597,0.1039156712711814
-0.00144735930772597,0.1005236968627333
-0.00144711930772597,0.1012020917444229
-0.00144687930772597,0.09340055060498884
-0.00144663930772597,0.09068697107822737
-0.00144639930772597,0.08695579922893606
-0.00144615930772597,0.08356382482048463
-0.00144591930772597,0.06762154510076537
-0.00144567930772597,0.05541043723035193
-0.00144543930772597,0.04828729097261075
-0.00144519930772597,0.04319932935993293
-0.00144495930772597,0.04218173703740649
-0.00144471930772597,0.06083759628386301
-0.00144447930772597,0.07576228368105029
-0.00144423930772597,0.08322462737964106
-0.00144399930772597,0.08627740434724443
-0.00144375930772597,0.08695579922893407
-0.00144351930772597,0.0852598120247095
-0.00144327930772597,0.08729499666977716
-0.00144303930772597,0.0825462324979519
-0.00144279930772597,0.08118944273456982
-0.00144255930772597,0.0784758632078099
-0.00144231930772597,0.07813666576696507
-0.00144207930772597,0.08254623249794774
-0.00144183930772597,0.0852598120247095
-0.00144159930772597,0.08899098387400466
-0.00144135930772597,0.09000857619653867
-0.00144111930772597,0.09068697107822907
-0.00144087930772597,0.09238295828245532
-0.00144063930772597,0.09543573525005866
-0.00144039930772597,0.09916690709935169
-0.00144015930772597,0.09950610454019834
-0.00143991930772597,0.0971317224542823
-0.00143967930772597,0.094418142927525
-0.00143943930772597,0.09204376084160895
-0.00143919930772597,0.09102616851907418
-0.00143895930772597,0.09136536595991901
-0.00143871930772597,0.0967925250134361
-0.00143847930772597,0.09950610454019834
-0.00143823930772597,0.1028980789486484
-0.00143799930772597,0.1035764738303377
-0.00143775930772597,0.1018804866261132
-0.00143751930772597,0.1032372763894927
-0.00143727930772597,0.1025588815078031
-0.00143703930772597,0.1015412891852686
-0.00143679930772597,0.104254868712028
-0.00143655930772597,0.103237276389493
-0.00143631930772597,0.1042548687120275
-0.00143607930772597,0.1052724610345629
-0.00143583930772597,0.1032372763894932
-0.00143559930772597,0.103576473830338
-0.00143535930772597,0.1015412891852691
-0.00143511930772597,0.1025588815078031
-0.00143487930772597,0.1025588815078031
-0.00143463930772597,0.1032372763894927
-0.00143439930772597,0.1045940661528729
-0.00143415930772597,0.1052724610345626
-0.00143391930772597,0.1045940661528729
-0.00143367930772597,0.1090036328838556
-0.00143343930772597,0.1093428303247025
-0.00143319930772597,0.1100212252063925
-0.00143295930772597,0.1123956072923062
-0.00143271930772597,0.1083252380021676
-0.00143247930772597,0.1062900533570969
-0.00143223930772597,0.104254868712028
-0.00143199930772597,0.102219684066959
-0.00143175930772597,0.1022196840669581
-0.00143151930772597,0.1028980789486481
-0.00143127930772597,0.1015412891852688
-0.00143103930772597,0.1022196840669581
-0.00143079930772597,0.1032372763894941
-0.00143055930772597,0.1056116584754078
-0.00143031930772597,0.1066292507979423
-0.00143007930772597,0.1086644354430126
-0.00142983930772597,0.1093428303247025
-0.00142959930772597,0.1090036328838577
-0.00142935930772597,0.1045940661528729
-0.00142911930772597,0.1028980789486479
-0.00142887930772597,0.1025588815078031
-0.00142863930772597,0.100862894303579
-0.00142839930772597,0.0988277096585084
-0.00142815930772597,0.1001844994218883
-0.00142791930772597,0.1012020917444228
-0.00142767930772597,0.09984530198104333
-0.00142743930772597,0.09950610454019834
-0.00142719930772597,0.09950610454019834
-0.00142695930772597,0.09781011733597425
-0.00142671930772597,0.09882770965850809
-0.00142647930772597,0.09814931477681846
-0.00142623930772597,0.1015412891852666
-0.00142599930772597,0.1015412891852682
-0.00142575930772597,0.1015412891852693
-0.00142551930772597,0.103915671271183
-0.00142527930772597,0.1073076456796312
-0.00142503930772597,0.1069684482387871
-0.00142479930772597,0.1056116584754078
-0.00142455930772597,0.1066292507979423
-0.00142431930772597,0.104254868712028
-0.00142407930772597,0.1015412891852683
-0.00142383930772597,0.1018804866261132
-0.00142359930772597,0.09984530198104426
-0.00142335930772597,0.1028980789486492
-0.00142311930772597,0.1052724610345629
-0.00142287930772597,0.1049332635937181
-0.00142263930772597,0.1066292507979428
-0.00142239930772597,0.1056116584754049
-0.00142215930772597,0.09916690709935339
-0.00142191930772597,0.09645332757259482
-0.00142167930772597,0.0930613531641431
-0.00142143930772597,0.09136536595991901
-0.00142119930772597,0.08593820690640191
-0.00142095930772597,0.06660395277823603
-0.00142071930772597,0.0526968577035886
-0.00142047930772597,0.04489531656415779
-0.00142023930772597,0.0394681575106407
-0.00141999930772597,0.03675457798387721
-0.00141975930772597,0.03404099845711867
-0.00141951930772597,0.0326842086937394
-0.00141927930772597,0.03268420869373878
-0.00141903930772597,0.03234501125289366
-0.00141879930772597,0.03200581381204883
-0.00141855930772597,0.03200581381204883
-0.00141831930772597,0.03166661637120371
-0.00141807930772597,0.03132741893035889
-0.00141783930772597,0.03132741893035889
-0.00141759930772597,0.03166661637120386
-0.00141735930772597,0.03166661637120417
-0.00141711930772597,0.03234501125289381
-0.00141687930772597,0.03098822148951454
-0.00141663930772597,0.03132741893035874
-0.00141639930772597,0.03098822148951392
-0.00141615930772597,0.03098822148951392
-0.00141591930772597,0.03030982660782397
-0.00141567930772597,0.03098822148951407
-0.00141543930772597,0.03132741893035889
-0.00141519930772597,0.03132741893035889
-0.00141495930772597,0.03132741893035904
-0.00141471930772597,0.03166661637120386
-0.00141447930772597,0.03166661637120386
-0.00141423930772597,0.03166661637120386
-0.00141399930772597,0.03166661637120401
-0.00141375930772597,0.03200581381204883
-0.00141351930772597,0.03302340613458375
-0.00141327930772597,0.03302340613458422
-0.00141303930772597,0.03404099845711867
-0.00141279930772597,0.03438019589796349
-0.00141255930772597,0.03505859077965359
-0.00141231930772597,0.03505859077965451
-0.00141207930772597,0.03709377542472342
-0.00141183930772597,0.05405364746697204
-0.00141159930772597,0.06999592718668944
-0.00141135930772597,0.07813666576696507
-0.00141111930772597,0.08525981202470627
-0.00141087930772597,0.08797339155146927
-0.00141063930772597,0.08966937875569414
-0.00141039930772597,0.08966937875569414
-0.00141015930772597,0.09034777363738408
-0.00140991930772597,0.09102616851907433
-0.00140967930772597,0.09170456340076397
-0.00140943930772597,0.0920437608416088
-0.00140919930772597,0.09238295828245394
-0.00140895930772597,0.09407894548667924
-0.00140871930772597,0.0950965378092137
-0.00140847930772597,0.09373974804583382
-0.00140823930772597,0.09475734036836887
-0.00140799930772597,0.0950965378092137
-0.00140775930772597,0.09814931477681707
-0.00140751930772597,0.09916690709935339
-0.00140727930772597,0.09984530198104394
-0.00140703930772597,0.1012020917444232
-0.00140679930772597,0.1045940661528729
-0.00140655930772597,0.1066292507979437
-0.00140631930772597,0.1086644354430126
-0.00140607930772597,0.1096820277655471
-0.00140583930772597,0.1062900533570978
-0.00140559930772597,0.1012020917444218
-0.00140535930772597,0.09814931477681985
-0.00140511930772597,0.09713172245428353
-0.00140487930772597,0.09373974804583289
-0.00140463930772597,0.09170456340076397
-0.00140439930772597,0.09136536595991916
-0.00140415930772597,0.08933018131484918
-0.00140391930772597,0.08933018131485088
-0.00140367930772597,0.09306135316414219
-0.00140343930772597,0.09306135316414388
-0.00140319930772597,0.09407894548667893
-0.00140295930772597,0.09441814292752376
-0.00140271930772597,0.09679252501343749
-0.00140247930772597,0.1001844994218883
-0.00140223930772597,0.101880486626113
-0.00140199930772597,0.1015412891852683
-0.00140175930772597,0.1066292507979428
-0.00140151930772597,0.1059508559162533
-0.00140127930772597,0.1069684482387877
-0.00140103930772597,0.1079860405613222
-0.00140079930772597,0.1049332635937179
-0.00140055930772597,0.09747091989512667
-0.00140031930772597,0.09340055060499068
-0.00140007930772597,0.09238295828245394
-0.00139983930772597,0.08797339155147081
-0.00139959930772597,0.09136536595991901
-0.00139935930772597,0.09373974804583274
-0.00139911930772597,0.09373974804583382
-0.00139887930772597,0.09441814292752376
-0.00139863930772597,0.09441814292752376
-0.00139839930772597,0.09068697107822907
-0.00139815930772597,0.09000857619653882
-0.00139791930772597,0.08933018131484918
-0.00139767930772597,0.08661660178809062
-0.00139743930772597,0.08559900946555449
-0.00139719930772597,0.08424221970217519
-0.00139695930772597,0.08559900946555388
-0.00139671930772597,0.08458141714301956
-0.00139647930772597,0.09170456340076644
-0.00139623930772597,0.09713172245428353
-0.00139599930772597,0.1005236968627317
-0.00139575930772597,0.1025588815078031
-0.00139551930772597,0.1056116584754078
-0.00139527930772597,0.1117172124106146
-0.00139503930772597,0.1151091868190671
-0.00139479930772597,0.1154483842599131
-0.00139455930772597,0.1178227663458269
-0.00139431930772597,0.1106996200880857
-0.00139407930772597,0.1093428303247025
-0.00139383930772597,0.1069684482387877
-0.00139359930772597,0.1042548687120292
-0.00139335930772597,0.104254868712028
-0.00139311930772597,0.1035764738303379
-0.00139287930772597,0.103237276389493
-0.00139263930772597,0.1039156712711827
-0.00139239930772597,0.1008628943035782
-0.00139215930772597,0.1001844994218883
-0.00139191930772597,0.09814931477681939
-0.00139167930772597,0.0988277096585084
-0.00139143930772597,0.09814931477681785
-0.00139119930772597,0.09679252501343857
-0.00139095930772597,0.09747091989512821
-0.00139071930772597,0.0950965378092137
-0.00139047930772597,0.0950965378092137
-0.00139023930772597,0.08899098387400697
-0.00138999930772597,0.08322462737963968
-0.00138975930772597,0.0784758632078099
-0.00138951930772597,0.07813666576696507
-0.00138927930772597,0.076440678562741
-0.00138903930772597,0.08390302226132962
-0.00138879930772597,0.08627740434724443
-0.00138855930772597,0.08797339155146849
-0.00138831930772597,0.08865178643315921
-0.00138807930772597,0.07135271695005979
-0.00138783930772597,0.05846321419795669
-0.00138759930772597,0.04862648841345696
-0.00138735930772597,0.04421692168246784
-0.00138711930772597,0.04455611912331282
-0.00138687930772597,0.05778481931626072
-0.00138663930772597,0.06524716301485614
-0.00138639930772597,0.07033512462753289
-0.00138615930772597,0.07508388879936034
-0.00138591930772597,0.08186783761625671
-0.00138567930772597,0.08661660178808984
-0.00138543930772597,0.08763419411062431
-0.00138519930772597,0.09034777363738285
-0.00138495930772597,0.09407894548667878
-0.00138471930772597,0.09713172245428446
-0.00138447930772597,0.09916690709935339
-0.00138423930772597,0.09950610454019819
-0.00138399930772597,0.1018804866261116
-0.00138375930772597,0.09848851221766342
-0.00138351930772597,0.09747091989512897
-0.00138327930772597,0.09577493269090365
-0.00138303930772597,0.09509653780921401
-0.00138279930772597,0.09577493269090365
-0.00138255930772597,0.09747091989512774
-0.00138231930772597,0.09747091989512897
-0.00138207930772597,0.09848851221766342
-0.00138183930772597,0.09611413013174971
-0.00138159930772597,0.09611413013174863
-0.00138135930772597,0.09441814292752437
-0.00138111930772597,0.09577493269090365
-0.00138087930772597,0.09611413013174848
-0.00138063930772597,0.1032372763894943
-0.00138039930772597,0.1059508559162528
-0.00138015930772597,0.1062900533570976
-0.00137991930772597,0.1096820277655475
-0.00137967930772597,0.107307645679631
-0.00137943930772597,0.103576473830338
-0.00137919930772597,0.1008628943035795
-0.00137895930772597,0.1012020917444218
-0.00137871930772597,0.09814931477681846
-0.00137847930772597,0.093400550604991
-0.00137823930772597,0.09000857619653913
-0.00137799930772597,0.08933018131484795
-0.00137775930772597,0.08661660178808939
-0.00137751930772597,0.08729499666977902
-0.00137727930772597,0.08729499666977963
-0.00137703930772597,0.08797339155146927
-0.00137679930772597,0.090347773637383
-0.00137655930772597,0.09577493269090365
-0.00137631930772597,0.1008628943035798
-0.00137607930772597,0.104254868712028
-0.00137583930772597,0.103576473830338
-0.00137559930772597,0.109003632883858
-0.00137535930772597,0.1100212252063925
-0.00137511930772597,0.1103604226472373
-0.00137487930772597,0.1117172124106174
-0.00137463930772597,0.1073076456796296
-0.00137439930772597,0.1005236968627333
-0.00137415930772597,0.09747091989512852
-0.00137391930772597,0.09577493269090241
-0.00137367930772597,0.09306135316414388
-0.00137343930772597,0.09373974804583352
-0.00137319930772597,0.09238295828245394
-0.00137295930772597,0.09102616851907418
-0.00137271930772597,0.09136536595991901
-0.00137247930772597,0.09068697107822907
-0.00137223930772597,0.08966937875569368
-0.00137199930772597,0.08865178643315921
-0.00137175930772597,0.08729499666977994
-0.00137151930772597,0.09238295828245394
-0.00137127930772597,0.09645332757259452
-0.00137103930772597,0.09848851221766342
-0.00137079930772597,0.1005236968627333
-0.00137055930772597,0.1015412891852677
-0.00137031930772597,0.1005236968627333
-0.00137007930772597,0.1022196840669573
-0.00136983930772597,0.1028980789486481
-0.00136959930772597,0.1018804866261138
-0.00136935930772597,0.103237276389493
-0.00136911930772597,0.1049332635937179
-0.00136887930772597,0.1062900533570981
-0.00136863930772597,0.1069684482387877
-0.00136839930772597,0.1039156712711844
-0.00136815930772597,0.09916690709935339
-0.00136791930772597,0.09645332757259266
-0.00136767930772597,0.09441814292752376
-0.00136743930772597,0.09373974804583382
-0.00136719930772597,0.0954357352500582
-0.00136695930772597,0.09441814292752376
-0.00136671930772597,0.09475734036836857
-0.00136647930772597,0.09713172245428353
-0.00136623930772597,0.09984530198104333
-0.00136599930772597,0.09984530198104333
-0.00136575930772597,0.09916690709935339
-0.00136551930772597,0.1001844994218861
-0.00136527930772597,0.09543573525005866
-0.00136503930772597,0.08899098387400713
-0.00136479930772597,0.08593820690639944
-0.00136455930772597,0.08322462737963783
-0.00136431930772597,0.07915425808950184
-0.00136407930772597,0.0716919143909106
-0.00136383930772597,0.06931753230499425
-0.00136359930772597,0.06592555789654608
-0.00136335930772597,0.06185518860640826
-0.00136311930772597,0.05100087049936729
-0.00136287930772597,0.0428601319190861
-0.00136263930772597,0.03878976262895013
-0.00136239930772597,0.03573698566134353
-0.00136215930772597,0.03438019589796287
-0.00136191930772597,0.03268420869373878
-0.00136167930772597,0.03268420869373878
-0.00136143930772597,0.03234501125289381
-0.00136119930772597,0.03234501125289381
-0.00136095930772597,0.03234501125289381
-0.00136071930772597,0.03200581381204883
-0.00136047930772597,0.03200581381204898
-0.00136023930772597,0.03234501125289381
-0.00135999930772597,0.03200581381204898
-0.00135975930772597,0.03166661637120386
-0.00135951930772597,0.03132741893035904
-0.00135927930772597,0.03166661637120371
-0.00135903930772597,0.03132741893035889
-0.00135879930772597,0.03166661637120386
-0.00135855930772597,0.03166661637120386
-0.00135831930772597,0.03132741893035904
-0.00135807930772597,0.03200581381204883
-0.00135783930772597,0.03166661637120386
-0.00135759930772597,0.03166661637120386
-0.00135735930772597,0.03200581381204883
-0.00135711930772597,0.03166661637120386
-0.00135687930772597,0.03166661637120386
-0.00135663930772597,0.03200581381204868
-0.00135639930772597,0.03200581381204883
-0.00135615930772597,0.03200581381204883
-0.00135591930772597,0.03200581381204883
-0.00135567930772597,0.03336260357542872
-0.00135543930772597,0.03404099845711898
-0.00135519930772597,0.03471939333880861
-0.00135495930772597,0.03573698566134307
-0.00135471930772597,0.03573698566134353
-0.00135447930772597,0.03539778822049856
-0.00135423930772597,0.04014655239232601
-0.00135399930772597,0.05778481931626674
-0.00135375930772597,0.07101351950922528
-0.00135351930772597,0.08118944273456982
-0.00135327930772597,0.09034777363737992
-0.00135303930772597,0.09679252501343857
-0.00135279930772597,0.09916690709935339
-0.00135255930772597,0.1015412891852671
-0.00135231930772597,0.103915671271183
-0.00135207930772597,0.106968448238789
-0.00135183930772597,0.1096820277655475
-0.00135159930772597,0.1096820277655475
-0.00135135930772597,0.1110388175289274
-0.00135111930772597,0.1130740021739972
-0.00135087930772597,0.1134131996148421
-0.00135063930772597,0.1151091868190671
-0.00135039930772597,0.1140915944965305
-0.00135015930772597,0.1103604226472375
-0.00134991930772597,0.1100212252063926
-0.00134967930772597,0.1076468431204777
-0.00134943930772597,0.1073076456796327
-0.00134919930772597,0.1032372763894949
-0.00134895930772597,0.09984530198104333
-0.00134871930772597,0.09882770965850809
-0.00134847930772597,0.09814931477681846
-0.00134823930772597,0.09441814292752546
-0.00134799930772597,0.09068697107822907
-0.00134775930772597,0.08831258899231426
-0.00134751930772597,0.08661660178809016
-0.00134727930772597,0.08559900946555449
-0.00134703930772597,0.08695579922893407
-0.00134679930772597,0.08627740434724443
-0.00134655930772597,0.08729499666977887
-0.00134631930772597,0.08865178643316292
