power calculation/afterdsppll/15_0_8_46.csv

#Digilent WaveForms Oscilloscope Acquisition
#Device Name: Discovery2
#Serial Number: SN:210321A7F99C
#Date Time: 2024-05-24 10:39:05.244
#Sample rate: 1.25e+07Hz
#Samples: 8192
#Trigger: Source: Channel 1 Type: Edge Condition: Rising Level: 84.34 mV Hyst.: Auto HoldOff: 0 s
#Channel 1: Range: 5 mV/div Offset: 0 V Attenuation: 1 X Sample Mode: Average

Time (s),Channel 1 (V)
-0.00040392,-0.001574732831603434
-0.00040384,-0.0008963379499134893
-0.00040376,-0.0005571405090688253
-0.00040368,-0.001235535390758153
-0.0004036,-0.0002179430682235444
-0.00040352,-0.0005571405090685169
-0.00040344,-0.0008963379499134893
-0.00040336,-0.001235535390758308
-0.00040328,-0.001235535390758462
-0.0004032,-0.0002179430682235444
-0.00040312,-0.0005571405090685169
-0.00040304,-0.0005571405090682084
-0.00040296,0.000121254372621428
-0.00040288,-0.0005571405090685169
-0.0004028,-0.0005571405090685169
-0.00040272,-0.0002179430682235444
-0.00040264,-0.0002179430682235444
-0.00040256,-0.0002179430682235444
-0.00040248,-0.0002179430682235444
-0.0004024,-0.0005571405090678998
-0.00040232,0.0007996492543107559
-0.00040224,-0.0005571405090685169
-0.00040216,0.0004604518134664004
-0.00040208,-0.0002179430682235444
-0.000402,0.0001212543726212737
-0.00040192,-0.001235535390758462
-0.00040184,0.000121254372621428
-0.00040176,0.000121254372621428
-0.00040168,-0.0005571405090685169
-0.0004016,-0.0005571405090685169
-0.00040152,-0.0005571405090685169
-0.00040144,0.000121254372621428
-0.00040136,-0.0002179430682236987
-0.00040128,-0.0005571405090683626
-0.0004012,0.000121254372621428
-0.00040112,-0.0008963379499134893
-0.00040104,-0.0005571405090685169
-0.00040096,-0.0005571405090685169
-0.00040088,-0.0005571405090685169
-0.0004008,-0.0008963379499134893
-0.00040072,-0.0005571405090685169
-0.00040064,-0.0005571405090685169
-0.00040056,-0.001235535390758462
-0.00040048,-0.0005571405090685169
-0.0004004,-0.0002179430682235444
-0.00040032,-0.0005571405090685169
-0.00040024,-0.0005571405090685169
-0.00040016,-0.0005571405090685169
-0.00040008,-0.0008963379499134893
-0.0004,-0.0005571405090686711
-0.00039992,-0.0008963379499134893
-0.00039984,-0.0008963379499134893
-0.00039976,-0.0002179430682235444
-0.00039968,-0.0008963379499136436
-0.0003996,-0.001235535390758308
-0.00039952,-0.0005571405090685169
-0.00039944,-0.0008963379499134893
-0.00039936,-0.0008963379499134893
-0.00039928,-0.0005571405090686711
-0.0003992,-0.0002179430682235444
-0.00039912,-0.0005571405090685169
-0.00039904,-0.001235535390758462
-0.00039896,-0.0005571405090685169
-0.00039888,-0.0005571405090685169
-0.0003988,-0.0005571405090685169
-0.00039872,-0.0008963379499134893
-0.00039864,-0.0008963379499134893
-0.00039856,-0.0008963379499134893
-0.00039848,-0.001235535390758462
-0.0003984,-0.0008963379499134893
-0.00039832,-0.001574732831602971
-0.00039824,-0.0005571405090689797
-0.00039816,-0.0008963379499134893
-0.00039808,-0.0005571405090685169
-0.000398,-0.0005571405090685169
-0.00039792,-0.001574732831602971
-0.00039784,-0.0008963379499134893
-0.00039776,-0.0008963379499134893
-0.00039768,-0.0005571405090685169
-0.0003976,-0.001235535390758153
-0.00039752,-0.0008963379499134893
-0.00039744,-0.001235535390758462
-0.00039736,-0.0008963379499134893
-0.00039728,-0.0005571405090686711
-0.0003972,-0.0008963379499134893
-0.00039712,-0.0008963379499134893
-0.00039704,-0.0005571405090685169
-0.00039696,-0.0008963379499134893
-0.00039688,-0.0008963379499134893
-0.0003968,-0.0005571405090685169
-0.00039672,-0.001235535390758462
-0.00039664,-0.0005571405090686711
-0.00039656,-0.0008963379499133351
-0.00039648,-0.001235535390758462
-0.0003964,-0.0005571405090685169
-0.00039632,-0.0008963379499134893
-0.00039624,-0.0008963379499134893
-0.00039616,-0.0002179430682235444
-0.00039608,-0.0005571405090685169
-0.000396,-0.0008963379499134893
-0.00039592,-0.001235535390758153
-0.00039584,-0.0005571405090685169
-0.00039576,-0.0008963379499134893
-0.00039568,0.000121254372621428
-0.0003956,-0.0005571405090688253
-0.00039552,-0.001235535390758153
-0.00039544,-0.0008963379499134893
-0.00039536,-0.0008963379499134893
-0.00039528,-0.0002179430682240072
-0.0003952,-0.001235535390757999
-0.00039512,-0.0005571405090685169
-0.00039504,-0.0002179430682235444
-0.00039496,-0.0005571405090685169
-0.00039488,-0.0005571405090685169
-0.0003948,-0.0002179430682235444
-0.00039472,-0.0002179430682235444
-0.00039464,-0.0002179430682235444
-0.00039456,-0.0005571405090682084
-0.00039448,0.000121254372621428
-0.0003944,-0.0002179430682235444
-0.00039432,-0.0005571405090685169
-0.00039424,-0.0005571405090686711
-0.00039416,-0.0008963379499133351
-0.00039408,-0.0002179430682235444
-0.000394,-0.0005571405090685169
-0.00039392,-0.000896337949913335
-0.00039384,-0.0005571405090686711
-0.00039376,-0.0005571405090685169
-0.00039368,-0.0008963379499134893
-0.0003936,-0.0005571405090685169
-0.00039352,-0.001235535390758153
-0.00039344,-0.0008963379499134893
-0.00039336,-0.001235535390758462
-0.00039328,-0.0005571405090685169
-0.0003932,-0.0005571405090686711
-0.00039312,-0.0008963379499134893
-0.00039304,-0.001235535390758462
-0.00039296,-0.001235535390758462
-0.00039288,-0.001235535390758153
-0.0003928,-0.0005571405090688253
-0.00039272,-0.0008963379499134893
-0.00039264,-0.0005571405090685169
-0.00039256,-0.0005571405090685169
-0.00039248,-0.0005571405090685169
-0.0003924,-0.0005571405090685169
-0.00039232,-0.0005571405090685169
-0.00039224,0.000121254372621428
-0.00039216,-0.0005571405090682084
-0.00039208,-0.0002179430682235444
-0.000392,-0.0008963379499134893
-0.00039192,-0.0008963379499134893
-0.00039184,-0.0005571405090683626
-0.00039176,-0.0002179430682235444
-0.00039168,-0.0002179430682235444
-0.0003916,0.000121254372621428
-0.00039152,-0.0005571405090685169
-0.00039144,-0.0005571405090685169
-0.00039136,-0.0008963379499134893
-0.00039128,-0.0002179430682235444
-0.0003912,-0.001235535390758462
-0.00039112,-0.001235535390758462
-0.00039104,-0.0008963379499134893
-0.00039096,-0.001235535390758462
-0.00039088,-0.001235535390758462
-0.0003908,-0.0008963379499136435
-0.00039072,-0.0008963379499134893
-0.00039064,-0.0008963379499134893
-0.00039056,-0.0005571405090685169
-0.00039048,-0.0005571405090685169
-0.0003904,-0.0005571405090685169
-0.00039032,-0.0008963379499134893
-0.00039024,0.000121254372621428
-0.00039016,-0.0002179430682235444
-0.00039008,-0.0002179430682235444
-0.00039,0.0004604518134664004
-0.00038992,-0.0005571405090685169
-0.00038984,0.0001212543726212737
-0.00038976,-0.0002179430682233902
-0.00038968,-0.0005571405090685169
-0.0003896,-0.0005571405090685169
-0.00038952,-0.0005571405090685169
-0.00038944,-0.0005571405090685169
-0.00038936,-0.0005571405090685169
-0.00038928,-0.0002179430682235444
-0.0003892,0.000121254372621428
-0.00038912,-0.0002179430682233902
-0.00038904,-0.0002179430682235444
-0.00038896,-0.0005571405090685169
-0.00038888,-0.0005571405090685169
-0.0003888,-0.0005571405090683626
-0.00038872,-0.0002179430682235444
-0.00038864,-0.0005571405090685169
-0.00038856,-0.0002179430682235444
-0.00038848,-0.0008963379499134893
-0.0003884,-0.0008963379499134893
-0.00038832,-0.0008963379499134893
-0.00038824,-0.0005571405090685169
-0.00038816,-0.001235535390758153
-0.00038808,-0.0005571405090688253
-0.000388,-0.0008963379499134893
-0.00038792,-0.001913930272448407
-0.00038784,-0.0002179430682235444
-0.00038776,-0.001235535390757999
-0.00038768,-0.001235535390758462
-0.0003876,-0.001235535390758462
-0.00038752,-0.0008963379499134893
-0.00038744,-0.0008963379499131809
-0.00038736,-0.0002179430682235444
-0.00038728,-0.0002179430682235444
-0.0003872,-0.0008963379499134893
-0.00038712,-0.000896337949913335
-0.00038704,-0.0005571405090686711
-0.00038696,0.000121254372621428
-0.00038688,-0.0008963379499134893
-0.0003868,-0.0005571405090686711
-0.00038672,-0.0008963379499133351
-0.00038664,-0.001235535390758462
-0.00038656,-0.0008963379499134893
-0.00038648,-0.0008963379499134893
-0.0003864,-0.0008963379499134893
-0.00038632,-0.0008963379499134893
-0.00038624,-0.0005571405090685169
-0.00038616,-0.0008963379499134893
-0.00038608,-0.0002179430682233902
-0.000386,0.000121254372621428
-0.00038592,-0.0005571405090685169
-0.00038584,-0.0002179430682235444
-0.00038576,-0.0005571405090686711
-0.00038568,-0.0008963379499133351
-0.0003856,-0.001235535390758462
-0.00038552,-0.0008963379499134893
-0.00038544,-0.0008963379499131809
-0.00038536,-0.0002179430682238528
-0.00038528,-0.0002179430682235444
-0.0003852,-0.0008963379499134893
-0.00038512,-0.0008963379499134893
-0.00038504,-0.0008963379499134893
-0.00038496,-0.0008963379499134893
-0.00038488,-0.0008963379499134893
-0.0003848,-0.001235535390758462
-0.00038472,-0.0005571405090685169
-0.00038464,-0.0005571405090685169
-0.00038456,-0.0008963379499134893
-0.00038448,-0.001235535390758462
-0.0003844,-0.001235535390758308
-0.00038432,-0.0008963379499136435
-0.00038424,-0.0002179430682235444
-0.00038416,-0.0008963379499134893
-0.00038408,-0.0005571405090685169
-0.000384,-0.0005571405090685169
-0.00038392,-0.001235535390758462
-0.00038384,-0.0002179430682235444
-0.00038376,-0.0005571405090685169
-0.00038368,-0.0008963379499133351
-0.0003836,-0.001574732831603434
-0.00038352,-0.001913930272448407
-0.00038344,-0.0008963379499134893
-0.00038336,0.0001212543726209652
-0.00038328,-0.0008963379499134893
-0.0003832,-0.0002179430682235444
-0.00038312,-0.0005571405090685169
-0.00038304,-0.0005571405090682084
-0.00038296,0.000121254372621428
-0.00038288,-0.0008963379499134893
-0.0003828,-0.0002179430682235444
-0.00038272,0.0001212543726211195
-0.00038264,-0.0005571405090682084
-0.00038256,-0.0008963379499134893
-0.00038248,0.000121254372621428
-0.0003824,-0.0008963379499134893
-0.00038232,-0.0002179430682238528
-0.00038224,-0.0008963379499134893
-0.00038216,-0.0002179430682235444
-0.00038208,-0.0005571405090685169
-0.000382,-0.0008963379499133351
-0.00038192,-0.0008963379499134893
-0.00038184,-0.0005571405090685169
-0.00038176,-0.001235535390758462
-0.00038168,-0.0008963379499134893
-0.0003816,-0.0008963379499134893
-0.00038152,-0.001235535390758462
-0.00038144,-0.0005571405090685169
-0.00038136,-0.001235535390758308
-0.00038128,-0.0008963379499136435
-0.0003812,-0.001235535390758462
-0.00038112,-0.0005571405090685169
-0.00038104,-0.001235535390758462
-0.00038096,-0.0008963379499136435
-0.00038088,-0.0005571405090685169
-0.0003808,-0.0008963379499134893
-0.00038072,-0.0005571405090685169
-0.00038064,-0.001235535390758153
-0.00038056,-0.0008963379499134893
-0.00038048,-0.0005571405090685169
-0.0003804,-0.0008963379499134893
-0.00038032,-0.0002179430682240072
-0.00038024,-0.001235535390758462
-0.00038016,-0.0005571405090685169
-0.00038008,-0.0005571405090685169
-0.00038,-0.0008963379499136436
-0.00037992,-0.001235535390758308
-0.00037984,-0.0005571405090685169
-0.00037976,-0.0002179430682235444
-0.00037968,-0.0005571405090686711
-0.0003796,-0.0008963379499133351
-0.00037952,-0.0005571405090685169
-0.00037944,-0.0008963379499134893
-0.00037936,-0.0005571405090685169
-0.00037928,-0.0008963379499133351
-0.0003792,-0.0002179430682235444
-0.00037912,-0.0002179430682235444
-0.00037904,-0.0005571405090685169
-0.00037896,0.0001212543726211195
-0.00037888,-0.0005571405090685169
-0.0003788,0.0007996492543113728
-0.00037872,0.0004604518134664004
-0.00037864,-0.0002179430682233902
-0.00037856,0.0001212543726212737
-0.00037848,0.000121254372621428
-0.0003784,-0.0005571405090685169
-0.00037832,0.0001212543726212737
-0.00037824,-0.0002179430682233902
-0.00037816,-0.0002179430682235444
-0.00037808,-0.0005571405090685169
-0.000378,-0.0005571405090685169
-0.00037792,-0.001574732831602971
-0.00037784,-0.0002179430682235444
-0.00037776,-0.0008963379499134893
-0.00037768,-0.0008963379499134893
-0.0003776,-0.0008963379499136436
-0.00037752,-0.001235535390758462
-0.00037744,-0.0008963379499134893
-0.00037736,-0.001235535390758462
-0.00037728,-0.0005571405090686711
-0.0003772,-0.0008963379499133351
-0.00037712,-0.0005571405090685169
-0.00037704,-0.0008963379499134893
-0.00037696,-0.000896337949913335
-0.00037688,-0.0005571405090686711
-0.0003768,-0.0008963379499134893
-0.00037672,-0.0005571405090685169
-0.00037664,-0.001235535390758462
-0.00037656,-0.0005571405090688253
-0.00037648,0.000121254372621428
-0.0003764,-0.0008963379499134893
-0.00037632,-0.0008963379499134893
-0.00037624,-0.0005571405090686711
-0.00037616,-0.0008963379499134893
-0.00037608,-0.0008963379499134893
-0.000376,-0.001235535390758462
-0.00037592,-0.001574732831603125
-0.00037584,-0.0008963379499137978
-0.00037576,-0.0005571405090685169
-0.00037568,-0.0008963379499134893
-0.0003756,-0.000217943068223853
-0.00037552,-0.000896337949913181
-0.00037544,-0.0008963379499134893
-0.00037536,-0.0008963379499134893
-0.00037528,-0.0005571405090685169
-0.0003752,-0.0002179430682236987
-0.00037512,-0.0008963379499134893
-0.00037504,-0.0008963379499134893
-0.00037496,-0.0005571405090685169
-0.00037488,-0.0008963379499134893
-0.0003748,-0.0008963379499134893
-0.00037472,-0.0005571405090685169
-0.00037464,-0.0005571405090685169
-0.00037456,-0.0005571405090686711
-0.00037448,-0.0008963379499134893
-0.0003744,0.000121254372621428
-0.00037432,0.000121254372621428
-0.00037424,-0.0002179430682233902
-0.00037416,0.0001212543726212737
-0.00037408,-0.0005571405090685169
-0.000374,-0.001235535390758462
-0.00037392,-0.0008963379499134893
-0.00037384,0.0001212543726209652
-0.00037376,-0.001235535390758462
-0.00037368,-0.0002179430682235444
-0.0003736,-0.0005571405090685169
-0.00037352,-0.0008963379499133351
-0.00037344,-0.0005571405090685169
-0.00037336,-0.0005571405090685169
-0.00037328,-0.0008963379499134893
-0.0003732,-0.0005571405090686711
-0.00037312,-0.0008963379499134893
-0.00037304,-0.001574732831603434
-0.00037296,-0.001235535390758462
-0.00037288,-0.0005571405090686711
-0.0003728,-0.0008963379499133351
-0.00037272,-0.0005571405090685169
-0.00037264,-0.001574732831603434
-0.00037256,-0.0005571405090685169
-0.00037248,-0.001574732831602971
-0.0003724,-0.001235535390758462
-0.00037232,-0.001574732831603434
-0.00037224,-0.0005571405090685169
-0.00037216,-0.0008963379499133351
-0.00037208,-0.0008963379499134893
-0.000372,-0.0008963379499134893
-0.00037192,-0.001235535390758462
-0.00037184,-0.001235535390758308
-0.00037176,-0.0008963379499134893
-0.00037168,-0.0008963379499134893
-0.0003716,-0.0005571405090685169
-0.00037152,-0.0005571405090686711
-0.00037144,-0.0008963379499133351
-0.00037136,-0.0008963379499134893
-0.00037128,-0.0002179430682235444
-0.0003712,-0.0005571405090688253
-0.00037112,-0.001235535390758153
-0.00037104,-0.0008963379499134893
-0.00037096,-0.0008963379499134893
-0.00037088,-0.0005571405090685169
-0.0003708,-0.0005571405090685169
-0.00037072,-0.0002179430682235444
-0.00037064,-0.001913930272448407
-0.00037056,-0.0008963379499134893
-0.00037048,-0.001235535390758616
-0.0003704,-0.001574732831603434
-0.00037032,-0.0005571405090685169
-0.00037024,-0.001235535390758462
-0.00037016,-0.001913930272448252
-0.00037008,-0.001574732831603588
-0.00037,-0.002253127713293379
-0.00036992,-0.001913930272448407
-0.00036984,-0.0008963379499137978
-0.00036976,-0.001574732831603125
-0.00036968,-0.001235535390758462
-0.0003696,-0.001235535390758462
-0.00036952,-0.001913930272448407
-0.00036944,-0.00123553539075877
-0.00036936,-0.001574732831603434
-0.00036928,-0.001574732831603434
-0.0003692,-0.001235535390758462
-0.00036912,-0.0008963379499136436
-0.00036904,-0.001235535390758462
-0.00036896,-0.001235535390758462
-0.00036888,-0.001574732831603434
-0.0003688,-0.001235535390758308
-0.00036872,-0.0008963379499136435
-0.00036864,-0.0008963379499134893
-0.00036856,-0.001235535390758462
-0.00036848,-0.001574732831603125
-0.0003684,-0.0008963379499137978
-0.00036832,-0.0005571405090685169
-0.00036824,-0.001913930272448407
-0.00036816,-0.0008963379499134893
-0.00036808,-0.0008963379499134893
-0.000368,-0.001913930272448407
-0.00036792,-0.001235535390758462
-0.00036784,-0.001574732831603434
-0.00036776,-0.0008963379499134893
-0.00036768,-0.0008963379499134893
-0.0003676,-0.0005571405090685169
-0.00036752,-0.001235535390758462
-0.00036744,-0.001235535390758462
-0.00036736,-0.001235535390758462
-0.00036728,-0.0008963379499134893
-0.0003672,-0.0002179430682235444
-0.00036712,-0.0005571405090686711
-0.00036704,-0.0008963379499133351
-0.00036696,-0.001235535390758462
-0.00036688,-0.0005571405090685169
-0.0003668,-0.0005571405090685169
-0.00036672,-0.0005571405090685169
-0.00036664,-0.0008963379499134893
-0.00036656,-0.0005571405090685169
-0.00036648,-0.0008963379499134893
-0.0003664,-0.0005571405090682084
-0.00036632,0.000121254372621428
-0.00036624,-0.0002179430682235444
-0.00036616,-0.001235535390758462
-0.00036608,-0.0002179430682240072
-0.000366,-0.001235535390758462
-0.00036592,-0.0002179430682235444
-0.00036584,-0.0002179430682235444
-0.00036576,-0.0005571405090685169
-0.00036568,-0.0005571405090685169
-0.0003656,-0.001235535390758462
-0.00036552,-0.0002179430682235444
-0.00036544,-0.0005571405090685169
-0.00036536,-0.0002179430682236987
-0.00036528,-0.0002179430682235444
-0.0003652,-0.0002179430682235444
-0.00036512,-0.0005571405090685169
-0.00036504,-0.0008963379499133351
-0.00036496,-0.0002179430682235444
-0.00036488,-0.0008963379499134893
-0.0003648,0.000121254372621428
-0.00036472,-0.0002179430682236987
-0.00036464,-0.0005571405090685169
-0.00036456,-0.0005571405090685169
-0.00036448,-0.0008963379499134893
-0.0003644,-0.0002179430682235444
-0.00036432,-0.0002179430682235444
-0.00036424,-0.0005571405090685169
-0.00036416,-0.0005571405090685169
-0.00036408,-0.0005571405090688253
-0.000364,-0.001235535390758153
-0.00036392,-0.0005571405090685169
-0.00036384,-0.0005571405090685169
-0.00036376,-0.0008963379499134893
-0.00036368,-0.001574732831603125
-0.0003636,-0.0008963379499134893
-0.00036352,-0.0005571405090685169
-0.00036344,-0.0008963379499134893
-0.00036336,-0.000896337949913335
-0.00036328,-0.0005571405090685169
-0.0003632,-0.0008963379499134893
-0.00036312,-0.0008963379499134893
-0.00036304,-0.0005571405090688253
-0.00036296,-0.001235535390758153
-0.00036288,-0.0005571405090685169
-0.0003628,-0.0008963379499134893
-0.00036272,0.0001212543726211195
-0.00036264,-0.0005571405090682084
-0.00036256,-0.0002179430682235444
-0.00036248,-0.0002179430682235444
-0.0003624,-0.0005571405090685169
-0.00036232,-0.0002179430682236987
-0.00036224,-0.0005571405090685169
-0.00036216,-0.0005571405090685169
-0.00036208,-0.0008963379499134893
-0.000362,-0.001574732831602817
-0.00036192,-0.0002179430682235444
-0.00036184,-0.0008963379499134893
-0.00036176,-0.001235535390758462
-0.00036168,-0.0005571405090688253
-0.0003616,-0.001235535390758153
-0.00036152,-0.001574732831603434
-0.00036144,-0.0008963379499134893
-0.00036136,-0.0005571405090688253
-0.00036128,-0.001235535390758153
-0.0003612,-0.001235535390758462
-0.00036112,-0.0005571405090685169
-0.00036104,-0.0008963379499134893
-0.00036096,-0.0005571405090686711
-0.00036088,-0.0002179430682235444
-0.0003608,-0.0005571405090685169
-0.00036072,-0.001235535390758462
-0.00036064,-0.0008963379499136436
-0.00036056,-0.001235535390758462
-0.00036048,-0.0008963379499134893
-0.0003604,-0.0002179430682235444
-0.00036032,-0.001574732831602817
-0.00036024,-0.0002179430682241613
-0.00036016,-0.001235535390758462
-0.00036008,-0.0008963379499134893
-0.00036,-0.001235535390758153
-0.00035992,-0.0005571405090688253
-0.00035984,-0.001235535390758462
-0.00035976,-0.0005571405090685169
-0.00035968,-0.001235535390758462
-0.0003596,-0.0008963379499136435
-0.00035952,-0.0008963379499134893
-0.00035944,-0.0008963379499134893
-0.00035936,-0.0008963379499134893
-0.00035928,-0.0005571405090685169
-0.0003592,-0.0005571405090685169
-0.00035912,-0.001235535390758462
-0.00035904,-0.0008963379499134893
-0.00035896,-0.0008963379499134893
-0.00035888,-0.0008963379499134893
-0.0003588,-0.0005571405090685169
-0.00035872,-0.0005571405090685169
-0.00035864,-0.0005571405090686711
-0.00035856,-0.0008963379499133351
-0.00035848,-0.0008963379499134893
