power calculation/initial bubblesort/44.csv

#Digilent WaveForms Oscilloscope Acquisition
#Device Name: Discovery2
#Serial Number: SN:210321A7F99C
#Date Time: 2024-05-28 11:32:48.591
#Sample rate: 1e+08Hz
#Samples: 8192
#Trigger: Source: Channel 1 Type: Edge Condition: Rising Level: 6.6 mV Hyst.: Auto HoldOff: 0 s
#Channel 1: Range: 50 mV/div Offset: 0 V Attenuation: 1 X Sample Mode: Average

Time (s),Channel 1 (V)
-4.096e-05,0.007244400630365849
-4.095e-05,0.006566005748675904
-4.094e-05,0.009957980157124702
-4.093e-05,0.00792279551205672
-4.092e-05,0.009957980157125628
-4.091e-05,0.006226808307830931
-4.09e-05,0.007583598071210821
-4.089e-05,0.006905203189521185
-4.088e-05,0.006905203189520876
-4.087e-05,0.008601190393745739
-4.086e-05,0.007922795512055793
-4.085e-05,0.007583598071210821
-4.084e-05,0.007583598071210821
-4.083e-05,0.007583598071210821
-4.082e-05,0.006566005748675904
-4.081e-05,0.00792279551205533
-4.08e-05,0.006905203189521338
-4.079e-05,0.006566005748675904
-4.078e-05,0.007583598071210821
-4.077e-05,0.005548413426141758
-4.076e-05,0.007244400630365078
-4.075e-05,0.007583598071210821
-4.074e-05,0.006905203189520876
-4.073e-05,0.008601190393745739
-4.072e-05,0.007922795512056102
-4.071e-05,0.004191623662761097
-4.07e-05,0.006226808307830931
-4.069e-05,0.007922795512055793
-4.068e-05,0.008601190393745585
-4.067e-05,0.008261992952900766
-4.066e-05,0.006226808307830931
-4.065e-05,0.008601190393745739
-4.064e-05,0.009618782716278805
-4.063e-05,0.005548413426142837
-4.062e-05,0.005887610866985959
-4.061e-05,0.008601190393745739
-4.06e-05,0.00690520318952211
-4.059e-05,0.009618782716279422
-4.058e-05,0.007244400630365849
-4.057e-05,0.008261992952900766
-4.056e-05,0.009957980157125628
-4.055e-05,0.00961878271628081
-4.054e-05,0.006905203189520876
-4.053e-05,0.008261992952900766
-4.052e-05,0.007922795512055793
-4.051e-05,0.008940387834589938
-4.05e-05,0.007244400630365849
-4.049e-05,0.008601190393745739
-4.048e-05,0.008261992952900766
-4.047e-05,0.006566005748676521
-4.046e-05,0.007922795512055793
-4.045e-05,0.007922795512055793
-4.044e-05,0.00894038783459071
-4.043e-05,0.007583598071210821
-4.042e-05,0.007583598071210821
-4.041e-05,0.007244400630365849
-4.04e-05,0.007922795512055793
-4.039e-05,0.007922795512055793
-4.038e-05,0.005548413426142066
-4.037e-05,0.008261992952900766
-4.036e-05,0.007244400630365849
-4.035e-05,0.007244400630365849
-4.034e-05,0.007583598071210512
-4.033e-05,0.006905203189520876
-4.032e-05,0.007583598071210821
-4.031e-05,0.008601190393745739
-4.03e-05,0.007583598071210357
-4.029e-05,0.006566005748675904
-4.028e-05,0.00894038783459071
-4.027e-05,0.005887610866985959
-4.026e-05,0.008601190393745121
-4.025e-05,0.007244400630366465
-4.024e-05,0.007922795512055793
-4.023e-05,0.00894038783459071
-4.022e-05,0.007922795512055793
-4.021e-05,0.007922795512055793
-4.02e-05,0.008261992952900766
-4.019e-05,0.007244400630365849
-4.018e-05,0.009279585275435683
-4.017e-05,0.007583598071211592
-4.016e-05,0.008261992952900766
-4.015e-05,0.006905203189520876
-4.014e-05,0.006905203189520876
-4.013e-05,0.006905203189520876
-4.012e-05,0.006905203189520876
-4.011e-05,0.006905203189520876
-4.01e-05,0.005887610866985959
-4.009e-05,0.005548413426141758
-4.008e-05,0.007244400630365078
-4.007e-05,0.006905203189520876
-4.006e-05,0.004870018544451042
-4.005e-05,0.007583598071211129
-4.004e-05,0.008261992952900457
-4.003e-05,0.006226808307830931
-4.002e-05,0.006226808307830931
-4.001e-05,0.004530821103606069
-4e-05,0.007244400630364614
-3.999e-05,0.004870018544451042
-3.998e-05,0.009618782716280656
-3.997e-05,0.005887610866985959
-3.996e-05,0.004530821103607766
-3.995e-05,0.008261992952900766
-3.994e-05,0.006566005748675904
-3.993e-05,0.008601190393745739
-3.992e-05,0.004191623662762177
-3.991e-05,0.006566005748674824
-3.99e-05,0.005887610866985959
-3.989e-05,0.007244400630365849
-3.988e-05,0.005887610866986114
-3.987e-05,0.006226808307830777
-3.986e-05,0.007583598071210821
-3.985e-05,0.005548413426140987
-3.984e-05,0.006566005748675904
-3.983e-05,0.00724440063036554
-3.982e-05,0.007244400630365849
-3.981e-05,0.006226808307830931
-3.98e-05,0.004530821103606069
-3.979e-05,0.006905203189520259
-3.978e-05,0.005548413426140987
-3.977e-05,0.007244400630365849
-3.976e-05,0.004530821103606069
-3.975e-05,0.007244400630365849
-3.974e-05,0.007244400630365849
-3.973e-05,0.008261992952900766
-3.972e-05,0.006226808307830931
-3.971e-05,0.006566005748676058
-3.97e-05,0.006905203189520722
-3.969e-05,0.006566005748675904
-3.968e-05,0.007583598071210821
-3.967e-05,0.006226808307830931
-3.966e-05,0.00656600574867575
-3.965e-05,0.007583598071210821
-3.964e-05,0.006226808307830931
-3.963e-05,0.006905203189520876
-3.962e-05,0.005887610866986885
-3.961e-05,0.007922795512055793
-3.96e-05,0.006226808307830931
-3.959e-05,0.005548413426140987
-3.958e-05,0.005887610866986268
-3.957e-05,0.006566005748675595
-3.956e-05,0.005209215985296014
-3.955e-05,0.005209215985296014
-3.954e-05,0.00520921598529663
-3.953e-05,0.006566005748675287
-3.952e-05,0.006226808307830931
-3.951e-05,0.005548413426140987
-3.95e-05,0.006226808307830931
-3.949e-05,0.006226808307830931
-3.948e-05,0.008601190393745739
-3.947e-05,0.005887610866985959
-3.946e-05,0.005548413426140987
-3.945e-05,0.006905203189520567
-3.944e-05,0.006226808307830931
-3.943e-05,0.007583598071210821
-3.942e-05,0.005209215985296014
-3.941e-05,0.007244400630366158
-3.94e-05,0.007922795512055793
-3.939e-05,0.004191623662761097
-3.938e-05,0.007583598071210821
-3.937e-05,0.005887610866986268
-3.936e-05,0.006566005748675595
-3.935e-05,0.007583598071210821
-3.934e-05,0.004191623662761097
-3.933e-05,0.009279585275435683
-3.932e-05,0.008601190393746048
-3.931e-05,0.005548413426140987
-3.93e-05,0.005548413426140987
-3.929e-05,0.006566005748675904
-3.928e-05,0.007583598071210821
-3.927e-05,0.007583598071210821
-3.926e-05,0.007244400630365849
-3.925e-05,0.006566005748675904
-3.924e-05,0.00690520318952103
-3.923e-05,0.007244400630365849
-3.922e-05,0.007244400630365849
-3.921e-05,0.005887610866985959
-3.92e-05,0.005548413426140987
-3.919e-05,0.005548413426140987
-3.918e-05,0.005887610866985959
-3.917e-05,0.006226808307830931
-3.916e-05,0.005887610866985959
-3.915e-05,0.004870018544451505
-3.914e-05,0.006226808307830931
-3.913e-05,0.005548413426140987
-3.912e-05,0.005887610866985959
-3.911e-05,0.007244400630365232
-3.91e-05,0.005209215985296014
-3.909e-05,0.006566005748675904
-3.908e-05,0.005548413426140987
-3.907e-05,0.008261992952899533
-3.906e-05,0.005548413426140987
-3.905e-05,0.006905203189520876
-3.904e-05,0.006905203189520876
-3.903e-05,0.006566005748675595
-3.902e-05,0.005887610866986268
-3.901e-05,0.006566005748675904
-3.9e-05,0.007922795512055793
-3.899e-05,0.00792279551205533
-3.898e-05,0.006905203189521338
-3.897e-05,0.005209215985296014
-3.896e-05,0.008261992952900766
-3.895e-05,0.006226808307830931
-3.894e-05,0.00860119039374466
-3.893e-05,0.007244400630365849
-3.892e-05,0.005209215985296014
-3.891e-05,0.008601190393745739
-3.89e-05,0.006566005748675441
-3.889e-05,0.005548413426140987
-3.888e-05,0.007244400630365849
-3.887e-05,0.006226808307830931
-3.886e-05,0.01029717759796937
-3.885e-05,0.007583598071212054
-3.884e-05,0.007922795512055793
-3.883e-05,0.007922795512055793
-3.882e-05,0.00622680830783124
-3.881e-05,0.006905203189520567
-3.88e-05,0.008261992952900766
-3.879e-05,0.008601190393745739
-3.878e-05,0.007244400630365849
-3.877e-05,0.006566005748676213
-3.876e-05,0.006226808307830931
-3.875e-05,0.005887610866985959
-3.874e-05,0.005209215985296014
-3.873e-05,0.005209215985296014
-3.872e-05,0.005209215985296014
-3.871e-05,0.004870018544451042
-3.87e-05,0.007244400630365849
-3.869e-05,0.006566005748675595
-3.868e-05,0.005887610866986268
-3.867e-05,0.005548413426140987
-3.866e-05,0.008261992952900766
-3.865e-05,0.006905203189519642
-3.864e-05,0.004191623662762331
-3.863e-05,0.006226808307830931
-3.862e-05,0.005548413426140987
-3.861e-05,0.00894038783459071
-3.86e-05,0.00724440063036662
-3.859e-05,0.005548413426140987
-3.858e-05,0.007922795512055793
-3.857e-05,0.004530821103606069
-3.856e-05,0.006566005748674515
-3.855e-05,0.003513228781071152
-3.854e-05,0.007922795512055793
-3.853e-05,0.005548413426140987
-3.852e-05,0.005209215985296785
-3.851e-05,0.006905203189520105
-3.85e-05,0.006226808307830931
-3.849e-05,0.007922795512055793
-3.848e-05,0.00419162366276156
-3.847e-05,0.005209215985295551
-3.846e-05,0.004530821103606069
-3.845e-05,0.005209215985296014
-3.844e-05,0.005548413426140987
-3.843e-05,0.003513228781072077
-3.842e-05,0.006226808307830931
-3.841e-05,0.006566005748675904
-3.84e-05,0.004870018544451042
-3.839e-05,0.004191623662762023
-3.838e-05,0.006226808307830931
-3.837e-05,0.006566005748675904
-3.836e-05,0.004530821103606069
-3.835e-05,0.005209215985296168
-3.834e-05,0.005548413426140987
-3.833e-05,0.007583598071210821
-3.832e-05,0.007583598071210821
-3.831e-05,0.005548413426140987
-3.83e-05,0.005548413426140987
-3.829e-05,0.006566005748675904
-3.828e-05,0.005887610866985959
-3.827e-05,0.006905203189520876
-3.826e-05,0.004530821103607149
-3.825e-05,0.007922795512055793
-3.824e-05,0.01063637503881557
-3.823e-05,0.005548413426140987
-3.822e-05,0.006566005748675441
-3.821e-05,0.007244400630365849
-3.82e-05,0.007583598071210821
-3.819e-05,0.008261992952900766
-3.818e-05,0.005209215985297556
-3.817e-05,0.008601190393745739
-3.816e-05,0.007244400630365849
-3.815e-05,0.008261992952900766
-3.814e-05,0.006905203189521339
-3.813e-05,0.00792279551205533
-3.812e-05,0.007583598071210821
-3.811e-05,0.009957980157125628
-3.81e-05,0.007244400630365849
-3.809e-05,0.007922795512055485
-3.808e-05,0.006566005748675904
-3.807e-05,0.008261992952900766
-3.806e-05,0.006905203189520876
-3.805e-05,0.007583598071210512
-3.804e-05,0.007583598071210821
-3.803e-05,0.007922795512055793
-3.802e-05,0.008601190393745739
-3.801e-05,0.006905203189521647
-3.8e-05,0.008601190393745739
-3.799e-05,0.006905203189520876
-3.798e-05,0.006226808307830931
-3.797e-05,0.008261992952900612
-3.796e-05,0.007922795512055948
-3.795e-05,0.007244400630365849
-3.794e-05,0.006226808307830931
-3.793e-05,0.006226808307830931
-3.792e-05,0.006226808307830931
-3.791e-05,0.008601190393745739
-3.79e-05,0.007583598071210821
-3.789e-05,0.005209215985296014
-3.788e-05,0.008940387834589014
-3.787e-05,0.005548413426140987
-3.786e-05,0.007922795512055793
-3.785e-05,0.005209215985296014
-3.784e-05,0.007244400630367854
-3.783e-05,0.01165396736135049
-3.782e-05,0.005887610866985959
-3.781e-05,0.004870018544451042
-3.78e-05,0.006905203189520876
-3.779e-05,0.006905203189520876
-3.778e-05,0.008261992952900766
-3.777e-05,0.006566005748675904
-3.776e-05,0.007922795512055793
-3.775e-05,0.007922795512055793
-3.774e-05,0.00894038783459071
-3.773e-05,0.006566005748675904
-3.772e-05,0.009618782716280656
-3.771e-05,0.007922795512056565
-3.77e-05,0.007922795512055793
-3.769e-05,0.008261992952900766
-3.768e-05,0.005548413426140987
-3.767e-05,0.008261992952899378
-3.766e-05,0.005209215985296014
-3.765e-05,0.008261992952900766
-3.764e-05,0.005887610866985959
-3.763e-05,0.005548413426141758
-3.762e-05,0.007244400630365078
-3.761e-05,0.006226808307830931
-3.76e-05,0.007583598071210821
-3.759e-05,0.006226808307831857
-3.758e-05,0.008261992952899842
-3.757e-05,0.004530821103606069
-3.756e-05,0.007244400630365849
-3.755e-05,0.006905203189520876
-3.754e-05,0.006566005748676058
-3.753e-05,0.008261992952900766
-3.752e-05,0.004870018544451042
-3.751e-05,0.007583598071210821
-3.75e-05,0.006905203189521185
-3.749e-05,0.007583598071210821
-3.748e-05,0.004870018544451042
-3.747e-05,0.007244400630365849
-3.746e-05,0.007244400630366158
-3.745e-05,0.007922795512055485
-3.744e-05,0.008261992952900766
-3.743e-05,0.006905203189520876
-3.742e-05,0.008601190393744813
-3.741e-05,0.006566005748676829
-3.74e-05,0.006905203189520876
-3.739e-05,0.007244400630365849
-3.738e-05,0.008261992952900766
-3.737e-05,0.007244400630366311
-3.736e-05,0.005548413426140987
-3.735e-05,0.006566005748675904
-3.734e-05,0.005548413426140987
-3.733e-05,0.006905203189519796
-3.732e-05,0.004530821103606069
-3.731e-05,0.007583598071210821
-3.73e-05,0.006226808307830931
-3.729e-05,0.005548413426142066
-3.728e-05,0.007922795512055793
-3.727e-05,0.006905203189520876
-3.726e-05,0.007583598071210821
-3.725e-05,0.00656600574867575
-3.724e-05,0.006226808307831086
-3.723e-05,0.006226808307830931
-3.722e-05,0.005887610866985959
-3.721e-05,0.005887610866985959
-3.72e-05,0.004530821103606686
-3.719e-05,0.005548413426140987
-3.718e-05,0.005548413426140987
-3.717e-05,0.006226808307830931
-3.716e-05,0.007922795512055021
-3.715e-05,0.003852426221916124
-3.714e-05,0.005548413426140987
-3.713e-05,0.005548413426140987
-3.712e-05,0.008601190393744042
-3.711e-05,0.004870018544451042
-3.71e-05,0.004191623662761097
-3.709e-05,0.005548413426140987
-3.708e-05,0.005548413426141295
-3.707e-05,0.006226808307830622
-3.706e-05,0.004191623662761097
-3.705e-05,0.005548413426140987
-3.704e-05,0.003852426221916124
-3.703e-05,0.005887610866985034
-3.702e-05,0.006226808307830931
-3.701e-05,0.004530821103606069
-3.7e-05,0.004191623662761097
-3.699e-05,0.00554841342614037
-3.698e-05,0.006566005748675904
-3.697e-05,0.003852426221916124
-3.696e-05,0.006226808307830931
-3.695e-05,0.003513228781072077
-3.694e-05,0.005548413426140987
-3.693e-05,0.007244400630365849
-3.692e-05,0.006905203189520876
-3.691e-05,0.005209215985295397
-3.69e-05,0.003852426221916741
-3.689e-05,0.008261992952900766
-3.688e-05,0.005887610866985959
-3.687e-05,0.007583598071210512
-3.686e-05,0.006905203189521185
-3.685e-05,0.004191623662761097
-3.684e-05,0.006226808307830931
-3.683e-05,0.004191623662761097
-3.682e-05,0.006226808307830006
-3.681e-05,0.003513228781071152
-3.68e-05,0.004530821103606069
-3.679e-05,0.006905203189520876
-3.678e-05,0.004870018544451196
-3.677e-05,0.005209215985296014
-3.676e-05,0.004870018544451042
-3.675e-05,0.004530821103606069
-3.674e-05,0.005548413426140523
-3.673e-05,0.004530821103606532
-3.672e-05,0.003513228781071152
-3.671e-05,0.005887610866985959
-3.67e-05,0.003174031340227876
-3.669e-05,0.006905203189519179
-3.668e-05,0.006905203189520876
-3.667e-05,0.006905203189520876
-3.666e-05,0.004191623662761097
-3.665e-05,0.004191623662761097
-3.664e-05,0.006905203189520876
-3.663e-05,0.004530821103606069
-3.662e-05,0.007244400630365849
-3.661e-05,0.003852426221916587
-3.66e-05,0.004870018544451042
-3.659e-05,0.008601190393745739
-3.658e-05,0.005209215985296014
-3.657e-05,0.005887610866986268
-3.656e-05,0.006566005748675595
-3.655e-05,0.005887610866985959
-3.654e-05,0.006905203189520876
-3.653e-05,0.004191623662761406
-3.652e-05,0.004870018544450733
-3.651e-05,0.005887610866985959
-3.65e-05,0.006905203189520876
-3.649e-05,0.005548413426140987
-3.648e-05,0.004530821103606532
-3.647e-05,0.004530821103606069
-3.646e-05,0.004870018544451042
-3.645e-05,0.005887610866985959
-3.644e-05,0.004530821103606069
-3.643e-05,0.004530821103606069
-3.642e-05,0.005209215985296014
-3.641e-05,0.004870018544451042
-3.64e-05,0.003852426221916895
-3.639e-05,0.005548413426140987
-3.638e-05,0.004530821103606069
-3.637e-05,0.005548413426140987
-3.636e-05,0.004191623662761714
-3.635e-05,0.00554841342614037
-3.634e-05,0.006905203189520876
-3.633e-05,0.004870018544451042
-3.632e-05,0.006566005748675904
-3.631e-05,0.004530821103606994
-3.63e-05,0.005209215985296014
-3.629e-05,0.005887610866985959
-3.628e-05,0.003852426221916124
-3.627e-05,0.006566005748675595
-3.626e-05,0.005887610866985959
-3.625e-05,0.006566005748675904
-3.624e-05,0.004191623662761097
-3.623e-05,0.006566005748675441
-3.622e-05,0.005548413426140987
-3.621e-05,0.004530821103606069
-3.62e-05,0.005887610866985959
-3.619e-05,0.004870018544451813
-3.618e-05,0.006566005748675133
-3.617e-05,0.007922795512055793
-3.616e-05,0.005887610866985959
-3.615e-05,0.006566005748675904
-3.614e-05,0.00724440063036554
-3.613e-05,0.006566005748675904
-3.612e-05,0.007922795512055793
-3.611e-05,0.005209215985296014
-3.61e-05,0.007583598071209741
-3.609e-05,0.008601190393745739
-3.608e-05,0.004191623662761097
-3.607e-05,0.008261992952900766
-3.606e-05,0.00520921598529663
-3.605e-05,0.006566005748675904
-3.604e-05,0.008601190393745739
-3.603e-05,0.005548413426140987
-3.602e-05,0.007244400630365386
-3.601e-05,0.006226808307831394
-3.6e-05,0.006226808307830931
-3.599e-05,0.006566005748675904
-3.598e-05,0.006226808307830777
-3.597e-05,0.005887610866986114
-3.596e-05,0.005548413426140987
-3.595e-05,0.007922795512055793
-3.594e-05,0.005548413426140987
-3.593e-05,0.006226808307830622
-3.592e-05,0.005548413426140987
-3.591e-05,0.004870018544451042
-3.59e-05,0.006566005748675904
-3.589e-05,0.00419162366276156
-3.588e-05,0.005209215985296014
-3.587e-05,0.004530821103606069
-3.586e-05,0.005209215985296014
-3.585e-05,0.007583598071210821
-3.584e-05,0.007583598071210821
-3.583e-05,0.004191623662761097
-3.582e-05,0.005887610866985959
-3.581e-05,0.005887610866986268
-3.58e-05,0.006566005748675595
-3.579e-05,0.006905203189520876
-3.578e-05,0.00317403134022618
-3.577e-05,0.006226808307830931
-3.576e-05,0.004870018544451659
-3.575e-05,0.007244400630365849
-3.574e-05,0.007922795512055793
-3.573e-05,0.005548413426140987
-3.572e-05,0.00622680830783016
-3.571e-05,0.004530821103606069
-3.57e-05,0.007583598071210821
-3.569e-05,0.003852426221916124
-3.568e-05,0.007244400630364769
-3.567e-05,0.004870018544452122
-3.566e-05,0.004530821103606069
-3.565e-05,0.006226808307830931
-3.564e-05,0.005209215985296477
-3.563e-05,0.006226808307830468
-3.562e-05,0.004530821103606069
-3.561e-05,0.005209215985296014
-3.56e-05,0.006905203189520876
-3.559e-05,0.008261992952900149
-3.558e-05,0.004530821103606069
-3.557e-05,0.006226808307830931
-3.556e-05,0.005548413426140987
-3.555e-05,0.00724440063036554
-3.554e-05,0.006566005748675904
-3.553e-05,0.004870018544451042
-3.552e-05,0.006905203189520876
-3.551e-05,0.009279585275434449
-3.55e-05,0.006566005748677137
-3.549e-05,0.006226808307830931
-3.548e-05,0.006566005748675904
-3.547e-05,0.007922795512055021
-3.546e-05,0.006226808307831702
-3.545e-05,0.007583598071210821
-3.544e-05,0.005209215985296014
-3.543e-05,0.009618782716280656
-3.542e-05,0.007922795512056565
-3.541e-05,0.005209215985296014
-3.54e-05,0.006905203189520876
-3.539e-05,0.006905203189520876
-3.538e-05,0.009279585275434141
-3.537e-05,0.005887610866985959
-3.536e-05,0.007244400630365849
-3.535e-05,0.007922795512055793
-3.534e-05,0.008601190393744506
-3.533e-05,0.005887610866985959
-3.532e-05,0.007244400630365849
-3.531e-05,0.008261992952900766
-3.53e-05,0.00860119039374543
-3.529e-05,0.007922795512056102
-3.528e-05,0.007244400630365849
-3.527e-05,0.009279585275435683
-3.526e-05,0.008261992952900766
-3.525e-05,0.006566005748676675
-3.524e-05,0.008261992952900766
-3.523e-05,0.007244400630365849
-3.522e-05,0.00894038783459071
-3.521e-05,0.006905203189521339
-3.52e-05,0.007922795512055793
-3.519e-05,0.008601190393745739
-3.518e-05,0.006905203189520876
-3.517e-05,0.008261992952900457
-3.516e-05,0.007583598071210821
-3.515e-05,0.007244400630365849
-3.514e-05,0.006905203189520876
-3.513e-05,0.006905203189520567
-3.512e-05,0.00622680830783124
-3.511e-05,0.004530821103606069
-3.51e-05,0.009279585275435683
-3.509e-05,0.009279585275435683
-3.508e-05,0.005209215985297865
-3.507e-05,0.007583598071210821
-3.506e-05,0.007583598071210821
-3.505e-05,0.007583598071210821
-3.504e-05,0.007583598071210821
-3.503e-05,0.005887610866985959
-3.502e-05,0.009618782716280656
-3.501e-05,0.01063637503881557
-3.5e-05,0.005209215985297248
-3.499e-05,0.007922795512055793
-3.498e-05,0.00894038783459071
-3.497e-05,0.008261992952900766
-3.496e-05,0.008940387834589168
-3.495e-05,0.00554841342614253
-3.494e-05,0.00894038783459071
-3.493e-05,0.009279585275435683
-3.492e-05,0.007244400630365232
-3.491e-05,0.005887610866986576
-3.49e-05,0.008261992952900766
-3.489e-05,0.007922795512055793
-3.488e-05,0.007922795512055793
-3.487e-05,0.007244400630366158
-3.486e-05,0.007244400630365849
-3.485e-05,0.008601190393745739
-3.484e-05,0.006905203189520876
-3.483e-05,0.008261992952899994
-3.482e-05,0.006566005748675904
-3.481e-05,0.008261992952900766
