power calculation/1.5MHzcounter/49.csv

#Digilent WaveForms Oscilloscope Acquisition
#Device Name: Discovery2
#Serial Number: SN:210321A7F99C
#Date Time: 2024-05-28 12:35:34.042
#Sample rate: 111359Hz
#Samples: 8192
#Trigger: Source: Channel 1 Type: Edge Condition: Rising Level: 49.42 mV Hyst.: Auto HoldOff: 0 s
#Channel 1: Range: 50 mV/div Offset: 0 V Attenuation: 1 X Sample Mode: Average

Time (s),Channel 1 (V)
-0.03864093289918193,-0.07178860308651272
-0.03863195289918192,-0.08535650072031239
-0.03862297289918192,-0.08705248792453649
-0.03861399289918192,-0.08637409304284654
-0.03860501289918192,-0.0867132904836915
-0.03859603289918193,-0.0751805774949677
-0.03858705289918192,-0.04600959758231796
-0.03857807289918192,-0.09688921370903746
-0.03856909289918192,-0.08976606745129626
-0.03856011289918192,-0.08603489560200156
-0.03855113289918193,-0.08603489560200156
-0.03854215289918193,-0.0867132904836912
-0.03853317289918192,-0.04295682061470827
-0.03852419289918192,-0.08298211863439681
-0.03851521289918192,-0.09417563418228089
-0.03850623289918192,-0.0867132904836915
-0.03849725289918193,-0.08773088280622597
-0.03848827289918192,-0.08637409304283621
-0.03847929289918192,-0.06364786450623339
-0.03847031289918192,-0.05550712592595405
-0.03846133289918192,-0.1012987804400253
-0.03845235289918193,-0.09587162138650823
-0.03844337289918193,-0.08773088280623013
-0.03843439289918192,-0.08603489560200202
-0.03842541289918192,-0.08705248792453649
-0.03841643289918192,-0.03413768715272079
-0.03840745289918193,-0.09078365977383118
-0.03839847289918193,-0.09078365977383118
-0.03838949289918192,-0.08942687001045176
-0.03838051289918192,-0.0904444623329862
-0.03837153289918192,-0.08807008024707139
-0.03836255289918192,-0.05143675663581438
-0.03835357289918193,-0.063308667065383
-0.03834459289918192,-0.09722841114988426
-0.03833561289918192,-0.09417563418228089
-0.03832663289918192,-0.08535650072031162
-0.03831765289918192,-0.09112285721467614
-0.03830867289918193,-0.08196452631186191
-0.03829969289918193,-0.03583367435696663
-0.03829071289918192,-0.100281188117487
-0.03828173289918192,-0.09281884441890101
-0.03827275289918192,-0.07823335446256721
-0.03826377289918192,-0.09180125209636608
-0.03825479289918193,-0.08637409304284902
-0.03824581289918192,-0.0497407694315997
-0.03823683289918192,-0.0721278005273577
-0.03822785289918192,-0.08807008024707139
-0.03821887289918192,-0.08399971095693173
-0.03820989289918193,-0.08128613143017317
-0.03820091289918193,-0.08840927768791314
-0.03819193289918192,-0.06771823379636227
-0.03818295289918192,-0.04397441293722498
-0.03817397289918192,-0.0856956981611566
-0.03816499289918193,-0.07992934166679205
-0.03815601289918193,-0.08196452631186098
-0.03814703289918192,-0.09519322650481042
-0.03813805289918192,-0.08332131607524179
-0.03812907289918192,-0.04193922829215515
-0.03812009289918192,-0.07653736725834234
-0.03811111289918193,-0.0873916853653765
-0.03810213289918192,-0.08467810583861905
-0.03809315289918192,-0.07891174934425715
-0.03808417289918192,-0.08366051351608675
-0.03807519289918192,-0.06195187730200852
-0.03806621289918193,-0.0510975591949694
-0.03805723289918193,-0.08467810583860641
-0.03804825289918192,-0.08569569816115444
-0.03803927289918192,-0.08094693398932698
-0.03803029289918192,-0.08637409304284654
-0.03802131289918192,-0.08094693398932698
-0.03801233289918193,-0.03617287179781098
-0.03800335289918192,-0.07959014422595172
-0.03799437289918192,-0.08976606745129626
-0.03798539289918192,-0.08196452631186191
-0.03797641289918192,-0.08264292119355185
-0.03796743289918193,-0.08162532887101738
-0.03795845289918192,-0.06263027218369646
-0.03794947289918192,-0.0582207054527254
-0.03794049289918192,-0.08366051351608675
-0.03793151289918192,-0.08773088280622643
-0.03792253289918193,-0.08026853910763704
-0.03791355289918193,-0.08230372375270593
-0.03790457289918192,-0.07992934166677092
-0.03789559289918192,-0.03345929227103084
-0.03788661289918192,-0.080607736548482
-0.03787763289918192,-0.09315804185974599
-0.03786865289918193,-0.0806077365484877
-0.03785967289918192,-0.08637409304284516
-0.03785069289918192,-0.08332131607524179
-0.03784171289918192,-0.05347194128088421
-0.03783273289918192,-0.06737903635552808
-0.03782375289918193,-0.08874847512875164
-0.03781477289918193,-0.08501730327946835
-0.03780579289918192,-0.07925094678510226
-0.03779681289918192,-0.0795901442259471
-0.03778783289918192,-0.07484138005411747
-0.03777885289918193,-0.04024324108793029
-0.03776987289918193,-0.09315804185972193
-0.03776089289918192,-0.08569569816115491
-0.03775191289918192,-0.08196452631186191
-0.03774293289918192,-0.08366051351608675
-0.03773395289918192,-0.08637409304284654
-0.03772497289918193,-0.04702718990484763
-0.03771599289918192,-0.07653736725834882
-0.03770701289918192,-0.09078365977383118
-0.03769803289918192,-0.09383643674143594
-0.03768905289918192,-0.07992934166679205
-0.03768007289918193,-0.08603489560200156
-0.03767109289918193,-0.06636144403300211
-0.03766211289918192,-0.0507583617541451
-0.03765313289918192,-0.09621081882735075
-0.03764415289918192,-0.09214044953721107
-0.03763517289918192,-0.08366051351608675
-0.03762619289918193,-0.09315804185974168
-0.03761721289918192,-0.08603489560197997
-0.03760823289918192,-0.03854725388370542
-0.03759925289918192,-0.08908767256960631
-0.03759027289918192,-0.09587162138650576
-0.03758129289918193,-0.08908767256960939
-0.03757231289918193,-0.08332131607524441
-0.03756333289918192,-0.08840927768790666
-0.03755435289918192,-0.0670398389146831
-0.03754537289918192,-0.06025589009778366
-0.03753639289918193,-0.09824600347242057
-0.03752741289918193,-0.09010526489214495
-0.03751843289918192,-0.07823335446257215
-0.03750945289918192,-0.08908767256960631
-0.03750047289918192,-0.09451483162312588
-0.03749149289918192,-0.03413768715272079
-0.03748251289918193,-0.09519322650478806
-0.03747353289918192,-0.0921404495372069
-0.03746455289918192,-0.08298211863439681
-0.03745557289918192,-0.09315804185974599
-0.03744659289918192,-0.09146205465552112
-0.03743761289918193,-0.05889910033440377
-0.03742863289918193,-0.06364786450623122
-0.03741965289918192,-0.08603489560200017
-0.03741067289918192,-0.08298211863439681
-0.03740169289918192,-0.08840927768791637
-0.03739271289918192,-0.08739168536538144
-0.03738373289918193,-0.08366051351608844
-0.03737475289918192,-0.03888645132457446
-0.03736577289918192,-0.09180125209636608
-0.03735679289918192,-0.08433890839777669
-0.03734781289918192,-0.080607736548482
-0.03733883289918193,-0.09688921370903328
-0.03732985289918192,-0.08671329048367284
-0.03732087289918192,-0.04567040014146188
-0.03731189289918192,-0.0721278005273577
-0.03730291289918192,-0.08332131607524179
-0.03729393289918193,-0.08467810583862168
-0.03728495289918193,-0.08467810583862168
-0.03727597289918192,-0.09112285721466688
-0.03726699289918192,-0.07077101076397779
-0.03725801289918192,-0.04567040014144984
-0.03724903289918192,-0.08366051351608675
-0.03724005289918193,-0.08807008024706939
-0.03723107289918192,-0.0833213160752458
-0.03722209289918192,-0.09214044953721107
-0.03721311289918192,-0.08603489560200156
-0.03720413289918192,-0.04058243852877526
-0.03719515289918193,-0.07416298517241227
-0.03718617289918193,-0.08501730327946172
-0.03717719289918192,-0.08060773654848245
-0.03716821289918192,-0.08162532887101692
-0.03715923289918192,-0.08908767256960631
-0.03715025289918193,-0.06771823379637307
-0.03714127289918193,-0.05211515151751142
-0.03713229289918192,-0.08840927768791591
-0.03712331289918192,-0.08739168536538144
-0.03711433289918192,-0.07551977493580742
-0.03710535289918192,-0.08128613143017194
-0.03709637289918193,-0.09044446233298203
-0.03708739289918192,-0.03379848971189772
-0.03707841289918192,-0.08196452631186191
-0.03706943289918192,-0.09078365977383118
-0.03706045289918192,-0.08128613143017194
-0.03705147289918193,-0.080607736548482
-0.03704249289918193,-0.08535650072030945
-0.03703351289918192,-0.06093428497947345
-0.03702453289918192,-0.06059508753862863
-0.03701555289918192,-0.09010526489214124
-0.03700657289918192,-0.0867132904836915
-0.03699759289918193,-0.0772157621400366
-0.03698861289918192,-0.09044446233298527
-0.03697963289918192,-0.08840927768791637
-0.03697065289918192,-0.03583367435694565
-0.03696167289918192,-0.0904444623329862
-0.03695269289918193,-0.08433890839777947
-0.03694371289918193,-0.0765373672583459
-0.03693473289918192,-0.08569569816115753
-0.03692575289918192,-0.08773088280622643
-0.03691677289918192,-0.05177595407665935
-0.03690779289918193,-0.0721278005273577
-0.03689881289918193,-0.09417563418227087
-0.03688983289918192,-0.08671329048368734
-0.03688085289918192,-0.07755495958087724
-0.03687187289918192,-0.09078365977383118
-0.03686289289918192,-0.07009261588228785
-0.03685391289918193,-0.04634879502315059
-0.03684493289918192,-0.09553242394565911
-0.03683595289918192,-0.09180125209636608
-0.03682697289918192,-0.080607736548482
-0.03681799289918192,-0.08739168536538144
-0.03680901289918193,-0.08807008024707139
-0.03680003289918193,-0.0412608334104865
-0.03679105289918192,-0.08332131607524704
-0.03678207289918192,-0.09485402906397084
-0.03677309289918192,-0.08298211863439681
-0.03676411289918192,-0.07823335446256721
-0.03675513289918193,-0.08976606745129101
-0.03674615289918192,-0.06805743123721109
-0.03673717289918192,-0.05279354639919426
-0.03672819289918192,-0.1012987804400253
-0.03671921289918192,-0.1016379778808703
-0.03671023289918193,-0.08230372375271566
-0.03670125289918192,-0.09044446233298882
-0.03669227289918192,-0.09621081882732375
-0.03668329289918192,-0.03685126667948056
-0.03667431289918192,-0.09112285721467614
-0.03666533289918193,-0.09112285721467614
-0.03665635289918193,-0.0846781058386246
-0.03664737289918192,-0.08976606745129502
-0.03663839289918192,-0.08705248792453649
-0.03662941289918192,-0.0622910747428535
-0.03662043289918192,-0.06398706194707834
-0.03661145289918193,-0.09485402906395679
-0.03660247289918192,-0.08332131607523995
-0.03659349289918192,-0.07925094678510211
-0.03658451289918192,-0.08298211863439681
-0.03657553289918192,-0.09247964697805605
-0.03656655289918193,-0.03447688459359213
-0.03655757289918193,-0.09451483162309857
-0.03654859289918192,-0.08298211863439341
-0.03653961289918192,-0.07551977493580742
-0.03653063289918192,-0.08366051351608675
-0.03652165289918193,-0.0992635957949555
-0.03651267289918193,-0.04838397966823276
-0.03650369289918192,-0.07348459029074329
-0.03649471289918192,-0.08603489560200156
-0.03648573289918192,-0.0856956981611566
-0.03647675289918192,-0.08264292119355185
-0.03646777289918193,-0.09383643674143084
-0.03645879289918192,-0.07144940564565373
-0.03644981289918192,-0.04058243852877526
-0.03644083289918192,-0.0894268700104513
-0.03643185289918192,-0.0867132904836915
-0.03642287289918193,-0.0768765646991873
-0.03641389289918193,-0.08807008024706629
-0.03640491289918192,-0.08840927768789662
-0.03639593289918192,-0.0449920052597599
-0.03638695289918192,-0.07246699796820266
-0.03637797289918192,-0.08908767256960631
-0.03636899289918193,-0.08196452631186514
-0.03636001289918192,-0.07925094678510226
-0.03635103289918192,-0.0795901442259471
-0.03634205289918192,-0.0622910747428535
-0.03633307289918192,-0.04736638734567471
-0.03632409289918193,-0.08467810583860472
-0.03631511289918193,-0.08501730327946651
-0.03630613289918192,-0.07687656469919146
-0.03629715289918192,-0.08603489560200156
-0.03628817289918192,-0.08399971095693173
-0.03627919289918193,-0.03752966156117051
-0.03627021289918193,-0.07925094678508314
-0.03626123289918192,-0.08569569816115383
-0.03625225289918192,-0.0795901442259471
-0.03624327289918192,-0.08366051351608675
-0.03623429289918192,-0.08535650072031162
-0.03622531289918193,-0.06296946962455363
-0.03621633289918192,-0.05652471824850146
-0.03620735289918192,-0.08399971095693173
-0.03619837289918192,-0.0856956981611566
-0.03618939289918192,-0.08196452631186191
-0.03618041289918193,-0.080607736548482
-0.03617143289918193,-0.0877308828062232
-0.03616245289918192,-0.03345929227105614
-0.03615347289918192,-0.08908767256960631
-0.03614449289918192,-0.0856956981611566
-0.03613551289918192,-0.08230372375270686
-0.03612653289918193,-0.08874847512875843
-0.03611755289918192,-0.08671329048367916
-0.03610857289918192,-0.05957749521609371
-0.03609959289918192,-0.06941422100059791
-0.03609061289918192,-0.08976606745129626
-0.03608163289918193,-0.09214044953720998
-0.03607265289918192,-0.07619816981750291
-0.03606367289918192,-0.08840927768791282
-0.03605469289918192,-0.080607736548482
-0.03604571289918192,-0.03244169994849593
-0.03603673289918193,-0.03583367435694565
-0.03602775289918193,-0.03583367435694565
-0.03601877289918192,-0.03583367435694565
-0.03600979289918192,-0.03583367435694565
-0.03600081289918192,-0.03549447691610068
-0.03599183289918192,-0.031424107625961
-0.03598285289918193,-0.03549447691609883
-0.03597387289918192,-0.03617287179779047
-0.03596489289918192,-0.03583367435694565
-0.03595591289918192,-0.03617287179779062
-0.03594693289918192,-0.03617287179779062
-0.03593795289918193,-0.03379848971187582
-0.03592897289918193,-0.03278089738934136
-0.03591999289918192,-0.0358336743569458
-0.03591101289918192,-0.03617287179779062
-0.03590203289918192,-0.03583367435694565
-0.03589305289918193,-0.03617287179779062
-0.03588407289918193,-0.0358336743569458
-0.03587509289918192,-0.03108491018511835
-0.03586611289918192,-0.03617287179779062
-0.03585713289918192,-0.03617287179779062
-0.03584815289918192,-0.03617287179779062
-0.03583917289918193,-0.03651206923863544
-0.03583019289918192,-0.0365120692386342
-0.03582121289918192,-0.03345929227103084
-0.03581223289918192,-0.03108491018511603
-0.03580325289918192,-0.031424107625961
-0.03579427289918193,-0.031424107625961
-0.03578529289918193,-0.03108491018511619
-0.03577631289918192,-0.03142410762596085
-0.03576733289918192,-0.03108491018511603
-0.03575835289918192,-0.03108491018511603
-0.03574937289918192,-0.03108491018511603
-0.03574039289918193,-0.03142410762596085
-0.03573141289918192,-0.031424107625961
-0.03572243289918192,-0.031424107625961
-0.03571345289918192,-0.03108491018511603
-0.03570447289918192,-0.031424107625961
-0.03569549289918193,-0.03108491018511619
-0.03568651289918193,-0.03142410762596085
-0.03567753289918192,-0.031424107625961
-0.03566855289918192,-0.031424107625961
-0.03565957289918192,-0.031424107625961
-0.03565059289918193,-0.031424107625961
-0.03564161289918193,-0.03108491018511619
-0.03563263289918192,-0.03142410762596085
-0.03562365289918192,-0.03108491018511603
-0.03561467289918192,-0.03176330506680598
-0.03560569289918192,-0.031424107625961
-0.03559671289918193,-0.031424107625961
-0.03558773289918192,-0.031424107625961
-0.03557875289918192,-0.031424107625961
-0.03556977289918192,-0.03176330506680598
-0.03556079289918192,-0.03176330506680598
-0.03555181289918193,-0.03176330506680598
-0.03554283289918193,-0.03142410762596116
-0.03553385289918192,-0.03176330506680582
-0.03552487289918192,-0.031424107625961
-0.03551589289918192,-0.03176330506680598
-0.03550691289918192,-0.03176330506680598
-0.03549793289918193,-0.03176330506680598
-0.03548895289918192,-0.03176330506680598
-0.03547997289918192,-0.03176330506680598
-0.03547099289918192,-0.031424107625961
-0.03546201289918192,-0.03176330506680598
-0.03545303289918193,-0.0321025025076508
-0.03544405289918192,-0.03176330506680613
-0.03543507289918192,-0.0321025025076508
-0.03542609289918192,-0.03176330506680598
-0.03541711289918192,-0.03176330506680598
-0.03540813289918193,-0.03176330506680598
-0.03539915289918193,-0.03176330506680598
-0.03539017289918192,-0.03176330506680613
-0.03538119289918192,-0.03210250250765095
-0.03537221289918192,-0.03176330506680598
-0.03536323289918192,-0.03210250250765095
-0.03535425289918193,-0.03176330506680613
-0.03534527289918192,-0.03176330506680582
-0.03533629289918192,-0.031424107625961
-0.03532731289918192,-0.03176330506680598
-0.03531833289918192,-0.03176330506680598
-0.03530935289918193,-0.03176330506680598
-0.03530037289918193,-0.03176330506680598
-0.03529139289918192,-0.03176330506680598
-0.03528241289918192,-0.03176330506680598
-0.03527343289918192,-0.03210250250765095
-0.03526445289918193,-0.03176330506680598
-0.03525547289918193,-0.03176330506680598
-0.03524649289918192,-0.03176330506680613
-0.03523751289918192,-0.03210250250765095
-0.03522853289918192,-0.03176330506680598
-0.03521955289918192,-0.03176330506680598
-0.03521057289918193,-0.0321025025076508
-0.03520159289918192,-0.0321025025076508
-0.03519261289918192,-0.03176330506680598
-0.03518363289918192,-0.03176330506680598
-0.03517465289918192,-0.03176330506680598
-0.03516567289918193,-0.03176330506680598
-0.03515669289918193,-0.0321025025076508
-0.03514771289918192,-0.03176330506680598
-0.03513873289918192,-0.03176330506680598
-0.03512975289918192,-0.03176330506680598
-0.03512077289918192,-0.03176330506680598
-0.03511179289918193,-0.0321025025076508
-0.03510281289918192,-0.03176330506680598
-0.03509383289918192,-0.03176330506680598
-0.03508485289918192,-0.03210250250765095
-0.03507587289918192,-0.03210250250765095
-0.03506689289918193,-0.03176330506680613
-0.03505791289918193,-0.0321025025076508
-0.03504893289918192,-0.03210250250765095
-0.03503995289918192,-0.03210250250765095
-0.03503097289918192,-0.03210250250765095
-0.03502199289918193,-0.03210250250765095
-0.03501301289918193,-0.03176330506680613
-0.03500403289918192,-0.03176330506680598
-0.03499505289918192,-0.03176330506680598
-0.03498607289918192,-0.03210250250765095
-0.03497709289918192,-0.03176330506680598
-0.03496811289918193,-0.0321025025076508
-0.03495913289918192,-0.03210250250765095
-0.03495015289918192,-0.03210250250765095
-0.03494117289918192,-0.03210250250765095
-0.03493219289918192,-0.03210250250765095
-0.03492321289918193,-0.03210250250765095
-0.03491423289918193,-0.03210250250765095
-0.03490525289918192,-0.0321025025076508
-0.03489627289918192,-0.03176330506680598
-0.03488729289918192,-0.03210250250765095
-0.03487831289918192,-0.03210250250765095
-0.03486933289918193,-0.03176330506680613
-0.03486035289918192,-0.0321025025076508
-0.03485137289918192,-0.03176330506680598
-0.03484239289918192,-0.03176330506680598
-0.03483341289918192,-0.03210250250765095
-0.03482443289918193,-0.03210250250765095
-0.03481545289918192,-0.03176330506680613
-0.03480647289918192,-0.0321025025076508
-0.03479749289918192,-0.03176330506680598
-0.03478851289918192,-0.03176330506680598
-0.03477953289918193,-0.03176330506680598
-0.03477055289918193,-0.0321025025076508
-0.03476157289918192,-0.03176330506680613
-0.03475259289918192,-0.03210250250765095
-0.03474361289918192,-0.03176330506680598
-0.03473463289918192,-0.03176330506680598
-0.03472565289918193,-0.03142410762596116
-0.03471667289918192,-0.03176330506680598
-0.03470769289918192,-0.03176330506680598
-0.03469871289918192,-0.03176330506680598
-0.03468973289918192,-0.03176330506680598
-0.03468075289918193,-0.03210250250765095
-0.03467177289918193,-0.03210250250765095
-0.03466279289918192,-0.03176330506680613
-0.03465381289918192,-0.03210250250765095
-0.03464483289918192,-0.03176330506680598
-0.03463585289918193,-0.03176330506680598
-0.03462687289918193,-0.0321025025076508
-0.03461789289918192,-0.03176330506680613
-0.03460891289918192,-0.03210250250765095
-0.03459993289918192,-0.03176330506680598
-0.03459095289918192,-0.03210250250765095
-0.03458197289918193,-0.03176330506680613
-0.03457299289918192,-0.03176330506680598
-0.03456401289918192,-0.03176330506680613
-0.03455503289918192,-0.03210250250765095
-0.03454605289918192,-0.03210250250765095
-0.03453707289918193,-0.03685126667948056
-0.03452809289918193,-0.03651206923863574
-0.03451911289918192,-0.03685126667948041
-0.03451013289918192,-0.03651206923863559
-0.03450115289918192,-0.03583367435694565
-0.03449217289918192,-0.03312009483018587
-0.03448319289918193,-0.03413768715272032
-0.03447421289918192,-0.03617287179779077
-0.03446523289918192,-0.03651206923863559
-0.03445625289918192,-0.03685126667948056
-0.03444727289918192,-0.03583367435694565
-0.03443829289918193,-0.03583367435694565
